<?xml version="1.0" encoding="utf-8"?>
<!-- Generator: Adobe Illustrator 13.0.0, SVG Export Plug-In . SVG Version: 6.00 Build 14948)  -->
<!DOCTYPE svg PUBLIC "-//W3C//DTD SVG 1.0//EN" "http://www.w3.org/TR/2001/REC-SVG-20010904/DTD/svg10.dtd">
<svg version="1.0" id="Layer_1" xmlns="http://www.w3.org/2000/svg" xmlns:xlink="http://www.w3.org/1999/xlink" x="0px" y="0px"
	 width="448.12px" height="410.853px" viewBox="0 0 448.12 410.853" enable-background="new 0 0 448.12 410.853"
	 xml:space="preserve">
<text transform="matrix(1 0 0 1 74.042 21.1978)"><tspan x="0" y="0" font-family="'Calibri'" font-size="25.98">Con</tspan><tspan x="41.203" y="0" font-family="'Calibri'" font-size="25.98">ver</tspan><tspan x="74.999" y="0" font-family="'Calibri'" font-size="25.98">ting</tspan></text>
<text transform="matrix(1 0 0 1 189.6011 21.1978)" font-family="'Calibri'" font-size="25.98"> </text>
<text transform="matrix(1 0 0 1 195.4727 21.1978)"><tspan x="0" y="0" font-family="'Calibri'" font-size="25.98">f</tspan><tspan x="7.928" y="0" font-family="'Calibri'" font-size="25.98">r</tspan><tspan x="17.012" y="0" font-family="'Calibri'" font-size="25.98">om</tspan></text>
<text transform="matrix(1 0 0 1 246.9648 21.1978)" font-family="'Calibri'" font-size="25.98"> </text>
<text transform="matrix(1 0 0 1 252.8359 21.1978)" font-family="'Calibri'" font-size="25.98">DOC</text>
<text transform="matrix(1 0 0 1 299.9463 21.1978)" font-family="'Calibri'" font-size="25.98"> </text>
<text transform="matrix(1 0 0 1 305.8174 21.1978)" font-family="'Calibri'" font-size="25.98">to</text>
<text transform="matrix(1 0 0 1 328.207 21.1978)" font-family="'Calibri'" font-size="25.98"> </text>
<text transform="matrix(1 0 0 1 334.0781 21.1978)"><tspan x="0" y="0" font-family="'Calibri'" font-size="25.98">SV</tspan><tspan x="26.729" y="0" font-family="'Calibri'" font-size="25.98">G</tspan></text>
<text transform="matrix(1 0 0 1 377.2285 21.1978)" font-family="'Calibri'" font-size="25.98"> </text>
<text transform="matrix(1 0 0 1 225.6621 61.9976)" font-family="'Calibri'" font-size="19.98"> </text>
<text transform="matrix(1 0 0 1 18.0098 100.0996)" font-family="'Calibri'" font-size="19.98">1.</text>
<text transform="matrix(1 0 0 1 36.0117 100.0996)" font-family="'Calibri'" font-size="19.98">Convert</text>
<text transform="matrix(1 0 0 1 100.3872 100.0996)" font-family="'Calibri'" font-size="19.98"> </text>
<text transform="matrix(1 0 0 1 104.8828 100.0996)" font-family="'Calibri'" font-size="19.98">your</text>
<text transform="matrix(1 0 0 1 141.9658 100.0996)" font-family="'Calibri'" font-size="19.98"> </text>
<text transform="matrix(1 0 0 1 146.4614 100.0996)" font-family="'Calibri'" font-size="19.98">word</text>
<text transform="matrix(1 0 0 1 188.7588 100.0996)" font-family="'Calibri'" font-size="19.98"> </text>
<text transform="matrix(1 0 0 1 193.2544 100.0996)"><tspan x="0" y="0" font-family="'Calibri'" font-size="19.98">docum</tspan><tspan x="55.94" y="0" font-family="'Calibri'" font-size="19.98">e</tspan><tspan x="65.901" y="0" font-family="'Calibri'" font-size="19.98">nt</tspan></text>
<text transform="matrix(1 0 0 1 276.4707 100.0996)" font-family="'Calibri'" font-size="19.98"> </text>
<text transform="matrix(1 0 0 1 280.9668 100.0996)"><tspan x="0" y="0" font-family="'Calibri'" font-size="19.98">t</tspan><tspan x="6.713" y="0" font-family="'Calibri'" font-size="19.98">o</tspan></text>
<text transform="matrix(1 0 0 1 298.2451 100.0996)" font-family="'Calibri'" font-size="19.98"> </text>
<text transform="matrix(1 0 0 1 302.7451 100.0996)" font-family="'Calibri'" font-size="19.98">PDF</text>
<text transform="matrix(1 0 0 1 334.5449 100.0996)" font-family="'Calibri'" font-size="19.98"> </text>
<text transform="matrix(1 0 0 1 339.0488 100.0996)"><tspan x="0" y="0" font-family="'Calibri'" font-size="19.98">fo</tspan><tspan x="16.634" y="0" font-family="'Calibri'" font-size="19.98">r</tspan><tspan x="23.619" y="0" font-family="'Calibri'" font-size="19.98">mat.</tspan></text>
<text transform="matrix(1 0 0 1 400.0078 100.0996)" font-family="'Calibri'" font-size="19.98">  </text>
<text transform="matrix(1 0 0 1 409.0059 100.0996)" font-family="'Calibri'" font-size="19.98">This</text>
<text transform="matrix(1 0 0 1 441.6455 100.0996)" font-family="'Calibri'" font-size="19.98"> </text>
<text transform="matrix(1 0 0 1 35.9917 128.1714)"><tspan x="0" y="0" font-family="'Calibri'" font-size="19.98">ca</tspan><tspan x="18.059" y="0" font-family="'Calibri'" font-size="19.98">n</tspan></text>
<text transform="matrix(1 0 0 1 64.5435 128.1714)" font-family="'Calibri'" font-size="19.98"> </text>
<text transform="matrix(1 0 0 1 69.0386 128.1714)" font-family="'Calibri'" font-size="19.98">be</text>
<text transform="matrix(1 0 0 1 89.498 128.1714)" font-family="'Calibri'" font-size="19.98"> </text>
<text transform="matrix(1 0 0 1 93.9937 128.1714)" font-family="'Calibri'" font-size="19.98">done</text>
<text transform="matrix(1 0 0 1 135.5122 128.1714)" font-family="'Calibri'" font-size="19.98"> </text>
<text transform="matrix(1 0 0 1 140.0078 128.1714)" font-family="'Calibri'" font-size="19.98">with</text>
<text transform="matrix(1 0 0 1 176.0718 128.1714)" font-family="'Calibri'" font-size="19.98"> </text>
<text transform="matrix(1 0 0 1 180.5669 128.1714)" font-family="'Calibri'" font-size="19.98">a</text>
<text transform="matrix(1 0 0 1 190.1577 128.1714)" font-family="'Calibri'" font-size="19.98"> </text>
<text transform="matrix(1 0 0 1 194.6528 128.1714)"><tspan x="0" y="0" font-family="'Calibri'" font-size="19.98">P</tspan><tspan x="10.362" y="0" font-family="'Calibri'" font-size="19.98">D</tspan><tspan x="22.674" y="0" font-family="'Calibri'" font-size="19.98">F</tspan></text>
<text transform="matrix(1 0 0 1 226.521 128.1714)" font-family="'Calibri'" font-size="19.98"> </text>
<text transform="matrix(1 0 0 1 231.0166 128.1714)"><tspan x="0" y="0" font-family="'Calibri'" font-size="19.98">Pr</tspan><tspan x="17.327" y="0" font-family="'Calibri'" font-size="19.98">int</tspan><tspan x="39.103" y="0" font-family="'Calibri'" font-size="19.98">er</tspan><tspan x="56.049" y="0" font-family="'Calibri'" font-size="19.98">.</tspan></text>
<text transform="matrix(1 0 0 1 292.1631 128.1714)" font-family="'Calibri'" font-size="19.98">  </text>
<text transform="matrix(1 0 0 1 301.1621 128.1714)" font-family="'Calibri'" font-size="19.98">Some</text>
<text transform="matrix(1 0 0 1 346.8203 128.1714)" font-family="'Calibri'" font-size="19.98"> </text>
<text transform="matrix(1 0 0 1 351.3164 128.1714)" font-family="'Calibri'" font-size="19.98">are</text>
<text transform="matrix(1 0 0 1 377.8301 128.1714)" font-family="'Calibri'" font-size="19.98"> </text>
<text transform="matrix(1 0 0 1 35.9521 156.1836)" font-family="'Calibri'" font-size="19.98">available</text>
<text transform="matrix(1 0 0 1 107.96 156.1836)" font-family="'Calibri'" font-size="19.98"> </text>
<text transform="matrix(1 0 0 1 112.4551 156.1836)"><tspan x="0" y="0" font-family="'Calibri'" font-size="19.98">f</tspan><tspan x="6.117" y="0" font-family="'Calibri'" font-size="19.98">or</tspan></text>
<text transform="matrix(1 0 0 1 136.0918 156.1836)" font-family="'Calibri'" font-size="19.98"> </text>
<text transform="matrix(1 0 0 1 140.5869 156.1836)"><tspan x="0" y="0" font-family="'Calibri'" font-size="19.98">fre</tspan><tspan x="23.064" y="0" font-family="'Calibri'" font-size="19.98">e</tspan></text>
<text transform="matrix(1 0 0 1 173.6543 156.1836)" font-family="'Calibri'" font-size="19.98"> </text>
<text transform="matrix(1 0 0 1 178.1494 156.1836)" font-family="'Calibri'" font-size="19.98">online.</text>
<text transform="matrix(1 0 0 1 233.8936 156.1836)" font-family="'Calibri'" font-size="19.98"> </text>
<text transform="matrix(1 0 0 1 17.9497 184.2554)" font-family="'Calibri'" font-size="19.98">2.</text>
<text transform="matrix(1 0 0 1 35.9517 184.2554)" font-family="'Calibri'" font-size="19.98">You</text>
<text transform="matrix(1 0 0 1 66.7212 184.2554)" font-family="'Calibri'" font-size="19.98"> </text>
<text transform="matrix(1 0 0 1 71.2168 184.2554)"><tspan x="0" y="0" font-family="'Calibri'" font-size="19.98">ca</tspan><tspan x="18.059" y="0" font-family="'Calibri'" font-size="19.98">n</tspan></text>
<text transform="matrix(1 0 0 1 99.7681 184.2554)" font-family="'Calibri'" font-size="19.98"> </text>
<text transform="matrix(1 0 0 1 104.2637 184.2554)" font-family="'Calibri'" font-size="19.98">either</text>
<text transform="matrix(1 0 0 1 152.915 184.2554)" font-family="'Calibri'" font-size="19.98"> </text>
<text transform="matrix(1 0 0 1 157.4102 184.2554)"><tspan x="0" y="0" font-family="'Calibri'" font-size="19.98">op</tspan><tspan x="21.034" y="0" font-family="'Calibri'" font-size="19.98">e</tspan><tspan x="30.995" y="0" font-family="'Calibri'" font-size="19.98">n</tspan></text>
<text transform="matrix(1 0 0 1 198.9326 184.2554)" font-family="'Calibri'" font-size="19.98"> </text>
<text transform="matrix(1 0 0 1 203.4844 184.2554)" font-family="'Calibri'" font-size="19.98">your</text>
<text transform="matrix(1 0 0 1 240.5674 184.2554)" font-family="'Calibri'" font-size="19.98"> </text>
<text transform="matrix(1 0 0 1 245.0625 184.2554)"><tspan x="0" y="0" font-family="'Calibri'" font-size="19.98">P</tspan><tspan x="10.361" y="0" font-family="'Calibri'" font-size="19.98">D</tspan><tspan x="22.674" y="0" font-family="'Calibri'" font-size="19.98">F</tspan></text>
<text transform="matrix(1 0 0 1 276.9307 184.2554)" font-family="'Calibri'" font-size="19.98"> </text>
<text transform="matrix(1 0 0 1 281.4258 184.2554)" font-family="'Calibri'" font-size="19.98">Document</text>
<text transform="matrix(1 0 0 1 366.3809 184.2554)" font-family="'Calibri'" font-size="19.98"> </text>
<text transform="matrix(1 0 0 1 370.877 184.2554)"><tspan x="0" y="0" font-family="'Calibri'" font-size="19.98">i</tspan><tspan x="4.565" y="0" font-family="'Calibri'" font-size="19.98">n</tspan></text>
<text transform="matrix(1 0 0 1 385.9414 184.2554)" font-family="'Calibri'" font-size="19.98"> </text>
<text transform="matrix(1 0 0 1 390.4375 184.2554)"><tspan x="0" y="0" font-family="'Calibri'" font-size="19.98">Adob</tspan><tspan x="43.172" y="0" font-family="'Calibri'" font-size="19.98">e</tspan></text>
<text transform="matrix(1 0 0 1 443.6035 184.2554)" font-family="'Calibri'" font-size="19.98"> </text>
<text transform="matrix(1 0 0 1 35.8921 212.3271)"><tspan x="0" y="0" font-family="'Calibri'" font-size="19.98">Illustr</tspan><tspan x="46.174" y="0" font-family="'Calibri'" font-size="19.98">a</tspan><tspan x="55.825" y="0" font-family="'Calibri'" font-size="19.98">tor</tspan></text>
<text transform="matrix(1 0 0 1 115.9141 212.3271)" font-family="'Calibri'" font-size="19.98"> </text>
<text transform="matrix(1 0 0 1 120.4272 212.3271)" font-family="'Calibri'" font-size="19.98">and</text>
<text transform="matrix(1 0 0 1 151.0244 212.3271)" font-family="'Calibri'" font-size="19.98"> </text>
<text transform="matrix(1 0 0 1 155.5322 212.3271)" font-family="'Calibri'" font-size="19.98">select</text>
<text transform="matrix(1 0 0 1 202.9893 212.3271)" font-family="'Calibri'" font-size="19.98"> </text>
<text transform="matrix(1 0 0 1 207.5601 212.3271)"><tspan x="0" y="0" font-family="'Calibri'" font-size="19.98">File&gt;S</tspan><tspan x="47.423" y="0" font-family="'Calibri'" font-size="19.98">a</tspan><tspan x="57.074" y="0" font-family="'Calibri'" font-size="19.98">ve</tspan></text>
<text transform="matrix(1 0 0 1 283.584 212.3271)" font-family="'Calibri'" font-size="19.98"> </text>
<text transform="matrix(1 0 0 1 288.0791 212.3271)" font-family="'Calibri'" font-size="19.98">As&gt;</text>
<text transform="matrix(1 0 0 1 317.4219 212.3271)" font-family="'Calibri'" font-size="19.98"> </text>
<text transform="matrix(1 0 0 1 321.9854 212.3271)" font-family="'Calibri'" font-size="19.98">and</text>
<text transform="matrix(1 0 0 1 352.583 212.3271)" font-family="'Calibri'" font-size="19.98"> </text>
<text transform="matrix(1 0 0 1 357.0908 212.3271)"><tspan x="0" y="0" font-family="'Calibri'" font-size="19.98">s</tspan><tspan x="7.814" y="0" font-family="'Calibri'" font-size="19.98">e</tspan><tspan x="17.775" y="0" font-family="'Calibri'" font-size="19.98">l</tspan><tspan x="22.361" y="0" font-family="'Calibri'" font-size="19.98">e</tspan><tspan x="32.322" y="0" font-family="'Calibri'" font-size="19.98">ct</tspan></text>
<text transform="matrix(1 0 0 1 404.6074 212.3271)" font-family="'Calibri'" font-size="19.98"> </text>
<text transform="matrix(1 0 0 1 409.1182 212.3271)" font-family="'Calibri'" font-size="19.98">SVG</text>
<text transform="matrix(1 0 0 1 442.2314 212.3271)" font-family="'Calibri'" font-size="19.98"> </text>
<text transform="matrix(1 0 0 1 35.9121 240.3989)"><tspan x="0" y="0" font-family="'Calibri'" font-size="19.98">f</tspan><tspan x="6.097" y="0" font-family="'Calibri'" font-size="19.98">r</tspan><tspan x="13.083" y="0" font-family="'Calibri'" font-size="19.98">om</tspan></text>
<text transform="matrix(1 0 0 1 75.5122 240.3989)" font-family="'Calibri'" font-size="19.98"> </text>
<text transform="matrix(1 0 0 1 80.0078 240.3989)" font-family="'Calibri'" font-size="19.98">or</text>
<text transform="matrix(1 0 0 1 97.5303 240.3989)" font-family="'Calibri'" font-size="19.98"> </text>
<text transform="matrix(1 0 0 1 102.0259 240.3989)" font-family="'Calibri'" font-size="19.98">use</text>
<text transform="matrix(1 0 0 1 130.2773 240.3989)" font-family="'Calibri'" font-size="19.98"> </text>
<text transform="matrix(1 0 0 1 134.7729 240.3989)"><tspan x="0" y="0" font-family="'Calibri'" font-size="19.98">a</tspan><tspan x="9.65" y="0" font-family="'Calibri'" font-size="19.98">n</tspan></text>
<text transform="matrix(1 0 0 1 154.9326 240.3989)" font-family="'Calibri'" font-size="19.98"> </text>
<text transform="matrix(1 0 0 1 159.4282 240.3989)" font-family="'Calibri'" font-size="19.98">online</text>
<text transform="matrix(1 0 0 1 210.1377 240.3989)" font-family="'Calibri'" font-size="19.98"> </text>
<text transform="matrix(1 0 0 1 214.6328 240.3989)" font-family="'Calibri'" font-size="19.98">PDF</text>
<text transform="matrix(1 0 0 1 246.4336 240.3989)" font-family="'Calibri'" font-size="19.98"> </text>
<text transform="matrix(1 0 0 1 250.9365 240.3989)"><tspan x="0" y="0" font-family="'Calibri'" font-size="19.98">t</tspan><tspan x="6.772" y="0" font-family="'Calibri'" font-size="19.98">o</tspan></text>
<text transform="matrix(1 0 0 1 268.2793 240.3989)" font-family="'Calibri'" font-size="19.98"> </text>
<text transform="matrix(1 0 0 1 272.7744 240.3989)" font-family="'Calibri'" font-size="19.98">SVG</text>
<text transform="matrix(1 0 0 1 305.8877 240.3989)" font-family="'Calibri'" font-size="19.98"> </text>
<text transform="matrix(1 0 0 1 310.3975 240.3989)"><tspan x="0" y="0" font-family="'Calibri'" font-size="19.98">con</tspan><tspan x="29.482" y="0" font-family="'Calibri'" font-size="19.98">ver</tspan><tspan x="55.474" y="0" font-family="'Calibri'" font-size="19.98">sion</tspan></text>
<text transform="matrix(1 0 0 1 399.3877 240.3989)" font-family="'Calibri'" font-size="19.98"> </text>
<text transform="matrix(1 0 0 1 35.8921 268.4712)"><tspan x="0" y="0" font-family="'Calibri'" font-size="19.98">s</tspan><tspan x="7.814" y="0" font-family="'Calibri'" font-size="19.98">erv</tspan><tspan x="33.805" y="0" font-family="'Calibri'" font-size="19.98">ic</tspan><tspan x="46.839" y="0" font-family="'Calibri'" font-size="19.98">e</tspan><tspan x="56.8" y="0" font-family="'Calibri'" font-size="19.98">.</tspan></text>
<text transform="matrix(1 0 0 1 97.6899 268.4712)" font-family="'Calibri'" font-size="19.98"> </text>
<text transform="matrix(1 0 0 1 17.8901 296.543)" font-family="'Calibri'" font-size="19.98">3.</text>
<text transform="matrix(1 0 0 1 35.8921 296.543)" font-family="'Calibri'" font-size="19.98">You</text>
<text transform="matrix(1 0 0 1 66.6611 296.543)" font-family="'Calibri'" font-size="19.98"> </text>
<text transform="matrix(1 0 0 1 71.1567 296.543)" font-family="'Calibri'" font-size="19.98">should</text>
<text transform="matrix(1 0 0 1 125.6421 296.543)" font-family="'Calibri'" font-size="19.98"> </text>
<text transform="matrix(1 0 0 1 130.1377 296.543)" font-family="'Calibri'" font-size="19.98">have</text>
<text transform="matrix(1 0 0 1 169.2583 296.543)" font-family="'Calibri'" font-size="19.98"> </text>
<text transform="matrix(1 0 0 1 173.7539 296.543)" font-family="'Calibri'" font-size="19.98">your</text>
<text transform="matrix(1 0 0 1 210.897 296.543)" font-family="'Calibri'" font-size="19.98"> </text>
<text transform="matrix(1 0 0 1 215.3921 296.543)" font-family="'Calibri'" font-size="19.98">SVG</text>
<text transform="matrix(1 0 0 1 248.5049 296.543)" font-family="'Calibri'" font-size="19.98"> </text>
<text transform="matrix(1 0 0 1 253.0146 296.543)"><tspan x="0" y="0" font-family="'Calibri'" font-size="19.98">Fil</tspan><tspan x="18.351" y="0" font-family="'Calibri'" font-size="19.98">e</tspan><tspan x="28.312" y="0" font-family="'Calibri'" font-size="19.98">!</tspan></text>
<text transform="matrix(1 0 0 1 287.8799 296.543)" font-family="'Calibri'" font-size="19.98"> </text>
<line fill="none" stroke="#000000" stroke-width="0.75" stroke-linecap="round" stroke-linejoin="round" stroke-miterlimit="10" x1="306.002" y1="356.478" x2="351.002" y2="410.478"/>
<line fill="none" stroke="#000000" stroke-width="0.75" stroke-linecap="round" stroke-linejoin="round" stroke-miterlimit="10" x1="441.002" y1="284.478" x2="351.002" y2="410.478"/>
<text transform="matrix(1 0 0 1 0 324.6777)" font-family="'Calibri'" font-size="19.98"> </text>
</svg>
