<?xml version="1.0" encoding="UTF-8" standalone="no"?>
<!-- Created with Inkscape (http://www.inkscape.org/) -->

<svg
   xmlns:dc="http://purl.org/dc/elements/1.1/"
   xmlns:cc="http://creativecommons.org/ns#"
   xmlns:rdf="http://www.w3.org/1999/02/22-rdf-syntax-ns#"
   xmlns:svg="http://www.w3.org/2000/svg"
   xmlns="http://www.w3.org/2000/svg"
   version="1.1"
   width="500"
   height="200"
   id="svg2985">
  <metadata
     id="metadata2991">
    <rdf:RDF>
      <cc:Work
         rdf:about="">
        <dc:format>image/svg+xml</dc:format>
        <dc:type
           rdf:resource="http://purl.org/dc/dcmitype/StillImage" />
        <dc:title></dc:title>
      </cc:Work>
    </rdf:RDF>
  </metadata>
  <defs
     id="defs2989" />
  <g
     transform="matrix(0.75536376,0,0,0.75536376,3.0732232,8.0211231)"
     id="g4544">
    <path
       d="m 67.484125,111.4523 550.293375,15.24275 -4.65048,53.34987 -12.21215,3.63861 c -12.99887,6.86776 -20.88922,5.59102 -34.17066,3.2529 l -22.21415,-0.95913 -93.50685,0.72135 -71.92742,-0.82558 c -13.10821,13.54303 -67.34654,4.3998 -72.65411,-0.42438 l -19.17752,0.10913 c -8.56987,5.02544 -80.35567,3.31365 -86.10203,-0.0328 l -40.54765,0.24341 -100.835737,-9.33414 -4.17562,-4.59042 z"
       id="rect2995-9"
       style="fill:#000000;fill-opacity:1;fill-rule:nonzero;stroke:none" />
    <g
       transform="translate(-0.72006069,0.72006393)"
       id="g4322">
      <path
         d="m 31.089261,119.29559 9.467524,-0.72006 1.800152,16.46783 -4.427099,4.50038 c -2.834587,-4.16328 -8.59177,-15.50945 -6.840577,-20.24815 z"
         id="rect2995-0-7"
         style="fill:#c0c0c0;fill-opacity:1;fill-rule:nonzero;stroke:#000000;stroke-width:0.5;stroke-miterlimit:4;stroke-opacity:1;stroke-dasharray:none" />
      <path
         d="m 31.08926,109.03473 24.94883,0 0,19.34807 -20.988496,5.76049 z"
         id="rect2995-0"
         style="fill:#c0c0c0;fill-opacity:1;fill-rule:nonzero;stroke:#000000;stroke-width:0.5;stroke-miterlimit:4;stroke-opacity:1;stroke-dasharray:none" />
      <path
         d="m 37.932408,143.02589 10.437775,0 0,12.98358 -10.437775,0 c -2.829496,-3.85628 -5.166961,-7.79456 0,-12.98358 z"
         id="rect2995-8"
         style="fill:#ff8c00;fill-opacity:1;fill-rule:nonzero;stroke:#000000;stroke-width:0.5;stroke-miterlimit:4;stroke-opacity:1;stroke-dasharray:none" />
      <path
         d="m 32.529381,105.25441 24.5888,2.52021 0,37.10365 -14.507949,10.68681 C 37.952354,138.80681 33.261624,122.04883 32.529381,105.25441 z"
         id="rect2995-0-6"
         style="fill:#c0c0c0;fill-opacity:1;fill-rule:nonzero;stroke:#000000;stroke-opacity:1" />
      <path
         d="m 622.44789,121.3866 12.47442,0 c 3.91458,5.7172 -2.34941,16.44313 -3.56412,15.02022 l -12.729,0 z"
         id="rect2995-26"
         style="fill:#8b0000;fill-opacity:1;fill-rule:nonzero;stroke:none" />
    </g>
    <path
       d="m 232.66131,27.684217 2.89797,2.088807 c 1.72896,1.378929 2.52534,3.557215 1.88075,6.970618 l -34.87745,43.862314 c -8.46801,7.156598 -15.15081,7.056631 -22.94023,0.302006 z"
       id="rect2995-15-2"
       style="fill:#add8e6;fill-opacity:1;fill-rule:nonzero;stroke:none" />
    <path
       d="m 645.32278,156.5468 c -2.29935,-12.62974 -10.46823,-11.02302 -14.68796,-3.24027 l -1.26011,19.34807 c -0.64419,9.1868 3.05387,11.42575 13.42993,-1.75573 1.30516,-2.06764 2.59264,-2.89195 2.51814,-7.06501 z"
       id="rect2995-0-99-3"
       style="fill:#c0c0c0;fill-opacity:1;fill-rule:nonzero;stroke:#000000;stroke-opacity:1" />
    <g
       transform="translate(374.2782,2.1297748)"
       id="g4181-3">
      <path
         d="m 12.961093,113.84836 a 6.8405771,6.8405771 0 1 1 -13.68115383,0 6.8405771,6.8405771 0 1 1 13.68115383,0 z"
         transform="matrix(6.6578946,0,0,6.6578946,70.710528,-582.72596)"
         id="path3898-5-4"
         style="fill:#121212;fill-opacity:1;fill-rule:nonzero;stroke:#000000;stroke-width:0.15019763;stroke-miterlimit:4;stroke-opacity:1;stroke-dasharray:none" />
      <path
         d="m 12.961093,113.84836 a 6.8405771,6.8405771 0 1 1 -13.68115383,0 6.8405771,6.8405771 0 1 1 13.68115383,0 z"
         transform="matrix(4.0530959,0,0,4.0530959,86.83326,-287.07397)"
         id="path3898-2-2"
         style="fill:#c0c0c0;fill-opacity:1;fill-rule:nonzero;stroke:#000000;stroke-width:0.24672498;stroke-miterlimit:4;stroke-opacity:1;stroke-dasharray:none" />
      <path
         d="m 12.961093,113.84836 a 6.8405771,6.8405771 0 1 1 -13.68115383,0 6.8405771,6.8405771 0 1 1 13.68115383,0 z"
         transform="matrix(3.6062898,0,0,3.6062898,89.207913,-236.20583)"
         id="path3898-2-5-3"
         style="fill:#c0c0c0;fill-opacity:1;fill-rule:nonzero;stroke:#000000;stroke-width:0.13475177;stroke-miterlimit:4;stroke-opacity:1;stroke-dasharray:none" />
      <path
         d="m 12.961093,113.84836 a 6.8405771,6.8405771 0 1 1 -13.68115383,0 6.8405771,6.8405771 0 1 1 13.68115383,0 z"
         transform="matrix(3.2379808,0,0,3.2379808,91.642171,-194.09442)"
         id="path3898-2-5-5-0"
         style="fill:#c0c0c0;fill-opacity:1;fill-rule:nonzero;stroke:#000000;stroke-width:0.1496063;stroke-miterlimit:4;stroke-opacity:1;stroke-dasharray:none" />
      <g
         id="g4171-0">
        <path
           d="m 91.656928,163.8535 c 1.018395,-3.13399 5.640213,-7.73409 8.316056,-8.60327 l 3.826176,3.65259 c -2.36205,1.99823 -4.824483,4.00945 -8.262091,8.65477 z"
           id="rect2995-5-7-0-5-9-1"
           style="fill:#000000;fill-opacity:1;fill-rule:nonzero;stroke:none" />
        <path
           d="m 105.72523,153.38646 c 2.9701,-1.42741 9.48887,-1.26073 11.96525,0.0746 l 0,5.28971 c -3.07638,-0.32873 -6.23148,-0.72112 -11.96525,0 z"
           id="rect2995-5-9"
           style="fill:#000000;fill-opacity:1;fill-rule:nonzero;stroke:none" />
        <path
           d="m 105.80681,196.31694 c 2.9701,1.42741 9.48887,1.26073 11.96525,-0.0746 l 0,-5.28971 c -3.07638,0.32873 -6.23148,0.72112 -11.96525,0 z"
           id="rect2995-5-7-2"
           style="fill:#000000;fill-opacity:1;fill-rule:nonzero;stroke:none" />
        <path
           d="m 90.165984,169.2509 c -1.42741,2.9701 -1.26073,9.48887 0.0746,11.96525 l 5.28971,0 c -0.32873,-3.07638 -0.72112,-6.23148 0,-11.96525 z"
           id="rect2995-5-7-0-2"
           style="fill:#000000;fill-opacity:1;fill-rule:nonzero;stroke:none" />
        <path
           d="m 132.5128,168.71086 c 1.42741,2.9701 1.26073,9.48887 -0.0746,11.96525 l -5.28971,0 c 0.32873,-3.07638 0.72112,-6.23148 0,-11.96525 z"
           id="rect2995-5-7-0-5-5"
           style="fill:#000000;fill-opacity:1;fill-rule:nonzero;stroke:none" />
        <path
           d="m 122.66096,193.72569 c 3.13399,-1.0184 7.73409,-5.64021 8.60327,-8.31605 l -3.6526,-3.82618 c -1.99822,2.36205 -4.00944,4.82448 -8.65477,8.26209 z"
           id="rect2995-5-7-0-5-9-7-1"
           style="fill:#000000;fill-opacity:1;fill-rule:nonzero;stroke:none" />
        <path
           d="m 131.54169,164.542 c -1.0184,-3.13399 -5.64021,-7.73409 -8.31605,-8.60327 l -3.82618,3.6526 c 2.36205,1.99822 4.82448,4.00944 8.26209,8.65477 z"
           id="rect2995-5-7-0-5-9-7-2-8"
           style="fill:#000000;fill-opacity:1;fill-rule:nonzero;stroke:none" />
        <path
           d="m 92.575601,185.38898 c 1.020451,3.13333 5.645271,7.7304 8.321689,8.59783 l 3.82379,-3.6551 c -2.36336,-1.99668 -4.827115,-4.00629 -8.267764,-8.64936 z"
           id="rect2995-5-7-0-5-9-7-2-6-1"
           style="fill:#000000;fill-opacity:1;fill-rule:nonzero;stroke:none" />
      </g>
      <path
         d="m 12.961093,113.84836 a 6.8405771,6.8405771 0 1 1 -13.68115383,0 6.8405771,6.8405771 0 1 1 13.68115383,0 z"
         transform="matrix(2.5849399,0,0,2.5849399,95.459103,-119.92682)"
         id="path3898-2-5-5-8-61"
         style="fill:#c0c0c0;fill-opacity:1;fill-rule:nonzero;stroke:#000000;stroke-width:0.35514018;stroke-miterlimit:4;stroke-opacity:1;stroke-dasharray:none" />
      <path
         d="m 12.961093,113.84836 a 6.8405771,6.8405771 0 1 1 -13.68115383,0 6.8405771,6.8405771 0 1 1 13.68115383,0 z"
         transform="matrix(2.1065625,0,0,2.1065625,98.387012,-65.1043)"
         id="path3898-2-5-5-8-5-1"
         style="fill:#c0c0c0;fill-opacity:1;fill-rule:nonzero;stroke:#000000;stroke-width:0.22891565;stroke-miterlimit:4;stroke-opacity:1;stroke-dasharray:none" />
      <path
         d="m 12.961093,113.84836 a 6.8405771,6.8405771 0 1 1 -13.68115383,0 6.8405771,6.8405771 0 1 1 13.68115383,0 z"
         transform="matrix(0.81578953,0,0,0.81578953,106.1072,82.028092)"
         id="path3898-2-5-5-8-6-7"
         style="fill:#c0c0c0;fill-opacity:1;fill-rule:nonzero;stroke:#000000;stroke-width:1.22580636;stroke-miterlimit:4;stroke-opacity:1;stroke-dasharray:none" />
    </g>
    <g
       id="g4181">
      <path
         d="m 12.961093,113.84836 a 6.8405771,6.8405771 0 1 1 -13.68115383,0 6.8405771,6.8405771 0 1 1 13.68115383,0 z"
         transform="matrix(6.6578946,0,0,6.6578946,70.710528,-582.72596)"
         id="path3898-5"
         style="fill:#121212;fill-opacity:1;fill-rule:nonzero;stroke:#000000;stroke-width:0.15019763;stroke-miterlimit:4;stroke-opacity:1;stroke-dasharray:none" />
      <path
         d="m 12.961093,113.84836 a 6.8405771,6.8405771 0 1 1 -13.68115383,0 6.8405771,6.8405771 0 1 1 13.68115383,0 z"
         transform="matrix(4.0530959,0,0,4.0530959,86.83326,-287.07397)"
         id="path3898-2"
         style="fill:#c0c0c0;fill-opacity:1;fill-rule:nonzero;stroke:#000000;stroke-width:0.24672498;stroke-miterlimit:4;stroke-opacity:1;stroke-dasharray:none" />
      <path
         d="m 12.961093,113.84836 a 6.8405771,6.8405771 0 1 1 -13.68115383,0 6.8405771,6.8405771 0 1 1 13.68115383,0 z"
         transform="matrix(3.6062898,0,0,3.6062898,89.207913,-236.20583)"
         id="path3898-2-5"
         style="fill:#c0c0c0;fill-opacity:1;fill-rule:nonzero;stroke:#000000;stroke-width:0.13475177;stroke-miterlimit:4;stroke-opacity:1;stroke-dasharray:none" />
      <path
         d="m 12.961093,113.84836 a 6.8405771,6.8405771 0 1 1 -13.68115383,0 6.8405771,6.8405771 0 1 1 13.68115383,0 z"
         transform="matrix(3.2379808,0,0,3.2379808,91.642171,-194.09442)"
         id="path3898-2-5-5"
         style="fill:#c0c0c0;fill-opacity:1;fill-rule:nonzero;stroke:#000000;stroke-width:0.1496063;stroke-miterlimit:4;stroke-opacity:1;stroke-dasharray:none" />
      <g
         id="g4171">
        <path
           d="m 91.656928,163.8535 c 1.018395,-3.13399 5.640213,-7.73409 8.316056,-8.60327 l 3.826176,3.65259 c -2.36205,1.99823 -4.824483,4.00945 -8.262091,8.65477 z"
           id="rect2995-5-7-0-5-9"
           style="fill:#000000;fill-opacity:1;fill-rule:nonzero;stroke:none" />
        <path
           d="m 105.72523,153.38646 c 2.9701,-1.42741 9.48887,-1.26073 11.96525,0.0746 l 0,5.28971 c -3.07638,-0.32873 -6.23148,-0.72112 -11.96525,0 z"
           id="rect2995-5"
           style="fill:#000000;fill-opacity:1;fill-rule:nonzero;stroke:none" />
        <path
           d="m 105.80681,196.31694 c 2.9701,1.42741 9.48887,1.26073 11.96525,-0.0746 l 0,-5.28971 c -3.07638,0.32873 -6.23148,0.72112 -11.96525,0 z"
           id="rect2995-5-7"
           style="fill:#000000;fill-opacity:1;fill-rule:nonzero;stroke:none" />
        <path
           d="m 90.165984,169.2509 c -1.42741,2.9701 -1.26073,9.48887 0.0746,11.96525 l 5.28971,0 c -0.32873,-3.07638 -0.72112,-6.23148 0,-11.96525 z"
           id="rect2995-5-7-0"
           style="fill:#000000;fill-opacity:1;fill-rule:nonzero;stroke:none" />
        <path
           d="m 132.5128,168.71086 c 1.42741,2.9701 1.26073,9.48887 -0.0746,11.96525 l -5.28971,0 c 0.32873,-3.07638 0.72112,-6.23148 0,-11.96525 z"
           id="rect2995-5-7-0-5"
           style="fill:#000000;fill-opacity:1;fill-rule:nonzero;stroke:none" />
        <path
           d="m 122.66096,193.72569 c 3.13399,-1.0184 7.73409,-5.64021 8.60327,-8.31605 l -3.6526,-3.82618 c -1.99822,2.36205 -4.00944,4.82448 -8.65477,8.26209 z"
           id="rect2995-5-7-0-5-9-7"
           style="fill:#000000;fill-opacity:1;fill-rule:nonzero;stroke:none" />
        <path
           d="m 131.54169,164.542 c -1.0184,-3.13399 -5.64021,-7.73409 -8.31605,-8.60327 l -3.82618,3.6526 c 2.36205,1.99822 4.82448,4.00944 8.26209,8.65477 z"
           id="rect2995-5-7-0-5-9-7-2"
           style="fill:#000000;fill-opacity:1;fill-rule:nonzero;stroke:none" />
        <path
           d="m 92.575601,185.38898 c 1.020451,3.13333 5.645271,7.7304 8.321689,8.59783 l 3.82379,-3.6551 c -2.36336,-1.99668 -4.827115,-4.00629 -8.267764,-8.64936 z"
           id="rect2995-5-7-0-5-9-7-2-6"
           style="fill:#000000;fill-opacity:1;fill-rule:nonzero;stroke:none" />
      </g>
      <path
         d="m 12.961093,113.84836 a 6.8405771,6.8405771 0 1 1 -13.68115383,0 6.8405771,6.8405771 0 1 1 13.68115383,0 z"
         transform="matrix(2.5849399,0,0,2.5849399,95.459103,-119.92682)"
         id="path3898-2-5-5-8"
         style="fill:#c0c0c0;fill-opacity:1;fill-rule:nonzero;stroke:#000000;stroke-width:0.35514018;stroke-miterlimit:4;stroke-opacity:1;stroke-dasharray:none" />
      <path
         d="m 12.961093,113.84836 a 6.8405771,6.8405771 0 1 1 -13.68115383,0 6.8405771,6.8405771 0 1 1 13.68115383,0 z"
         transform="matrix(2.1065625,0,0,2.1065625,98.387012,-65.1043)"
         id="path3898-2-5-5-8-5"
         style="fill:#c0c0c0;fill-opacity:1;fill-rule:nonzero;stroke:#000000;stroke-width:0.22891565;stroke-miterlimit:4;stroke-opacity:1;stroke-dasharray:none" />
      <path
         d="m 12.961093,113.84836 a 6.8405771,6.8405771 0 1 1 -13.68115383,0 6.8405771,6.8405771 0 1 1 13.68115383,0 z"
         transform="matrix(0.81578953,0,0,0.81578953,106.1072,82.028092)"
         id="path3898-2-5-5-8-6"
         style="fill:#c0c0c0;fill-opacity:1;fill-rule:nonzero;stroke:#000000;stroke-width:1.22580636;stroke-miterlimit:4;stroke-opacity:1;stroke-dasharray:none" />
    </g>
    <path
       d="m 257.17196,18.15193 c 62.72214,-1.23397 110.02547,-4.171461 170.92419,-0.720061 16.84118,1.216222 38.17021,4.667343 48.02934,10.926791 l 5.92083,3.59457 c -4.06121,-1.1502 -5.29476,3.35494 -6.54649,7.82369 l 35.00847,45.32454 c 4.698,13.28073 16.72108,1.38135 23.12299,0.17888 l 5.20175,4.82441 79.4267,10.37081 c 9.23395,1.42993 16.52976,4.83096 15.162,19.6757 l -4.86701,28.6984 c 0.0848,8.88311 0.5266,17.62969 -15.28351,32.59026 l -66.65291,-1.37089 c -11.53243,1.7553 -8.91551,-6.61903 -10.56757,-9.80391 -19.78242,-50.73355 -91.41581,-36.84439 -98.30039,0.66285 -1.38205,4.40336 -1.6069,12.37084 -12.55565,13.21008 l -247.45167,-0.50916 c -8.52156,0.16007 -13.67052,-10.68987 -15.49921,-17.22267 -9.58473,-63.64746 -93.163986,-49.10929 -97.277834,-6.14722 -0.08777,6.22191 -1.167724,13.22063 -7.623775,14.9855 l -9.58639,1.27454 C 37.485847,168.55101 36.523515,162.27528 41.16752,157.01889 l -5.255038,-48.69991 c -8.946512,-1.14349 -5.956278,-5.04161 2.695475,-10.24626 l 135.984533,-14.19337 5.1837,-3.17056 c 10.16584,7.89848 16.28722,3.6636 21.70968,-2.66805 l 34.65805,-41.15475 c 0.97344,-7.94642 -1.66832,-7.2223 -3.32323,-9.91202 4.32822,-4.41585 7.03629,-9.24572 24.35127,-8.82204 z"
       id="rect2995-1"
       style="fill:#2348b5;fill-opacity:1;fill-rule:nonzero;stroke:#000000;stroke-opacity:1" />
    <path
       d="m 607.68226,153.46367 22.2486,0.36003 c 6.80471,0.90548 14.72477,11.37918 2.70023,10.33232 l -27.82907,0.36003 c -9.80043,0.41269 -8.57354,-11.1273 2.88024,-11.05238 z"
       id="rect2995-2"
       style="fill:#c0c0c0;fill-opacity:1;fill-rule:nonzero;stroke:#000000;stroke-width:0.5;stroke-miterlimit:4;stroke-opacity:1;stroke-dasharray:none" />
    <path
       d="m 442.57925,113.35417 c 6.31089,5.50661 12.62175,7.15658 18.93263,0"
       id="path4377-3"
       style="fill:none;stroke:#152968;stroke-width:1.12500179px;stroke-linecap:butt;stroke-linejoin:miter;stroke-opacity:1" />
    <path
       d="m 440.6238,105.0744 22.42862,0 c 2.87657,-0.053 5.84729,2.74908 4.31135,4.2721 l -1.61112,4.27507 -25.30887,0 -2.33269,-4.27032 c -0.78341,-1.43414 0.88491,-3.02057 2.51271,-4.27685 z"
       id="rect2995-7"
       style="fill:#a9a9a9;fill-opacity:1;fill-rule:nonzero;stroke:#000000;stroke-opacity:1" />
    <path
       d="m 17.228091,154.57857 c 4.007246,-8.64466 12.877082,-8.34262 15.948071,-3.24027 l 0,19.34807 c 1.184245,7.38665 -3.05387,11.42575 -13.42993,-1.75573 -1.305155,-2.06764 -2.592636,-2.89195 -2.518141,-7.06501 z"
       id="rect2995-0-99"
       style="fill:#c0c0c0;fill-opacity:1;fill-rule:nonzero;stroke:#000000;stroke-opacity:1" />
    <path
       d="m 30.369199,153.31846 24.408784,-0.18002 c 4.677438,4.82888 2.246089,10.51779 -2.880243,10.88736 l -21.528541,0 c -11.672543,-0.0283 -6.40113,-9.88436 0,-10.70734 z"
       id="rect2995-0-9"
       style="fill:#c0c0c0;fill-opacity:1;fill-rule:nonzero;stroke:#000000;stroke-opacity:1" />
    <path
       d="m 12.961093,113.84836 a 6.8405771,6.8405771 0 1 1 -13.68115383,0 6.8405771,6.8405771 0 1 1 13.68115383,0 z"
       transform="matrix(0.50000001,0,0,0.50000001,49.301678,55.678526)"
       id="path3898"
       style="fill:#ff8c00;fill-opacity:1;fill-rule:nonzero;stroke:#000000;stroke-opacity:1" />
    <path
       d="m 40.478207,109.93051 c 3.823836,-3.14502 6.039692,-6.64096 20.875553,-7.38282 l 137.72773,-8.146559 284.11119,4.073279 137.98231,9.41946 4.07328,1.78206"
       id="path4329"
       style="fill:none;stroke:#152968;stroke-width:1px;stroke-linecap:butt;stroke-linejoin:miter;stroke-opacity:1" />
    <path
       d="m 518.62297,93.141025 19.30439,2.278426 81.97473,9.419459 c 5.4644,0.58641 10.32639,2.07643 10.43778,10.69235"
       id="path4331"
       style="fill:none;stroke:#000000;stroke-width:0.5;stroke-linecap:butt;stroke-linejoin:miter;stroke-miterlimit:4;stroke-opacity:1;stroke-dasharray:none" />
    <path
       d="m 201.53993,90.178723 c -55.64217,1.732564 -100.19525,5.083394 -143.241129,8.804847 -11.564562,0.454928 -17.648729,5.18019 -22.477598,9.00296"
       id="path4335"
       style="fill:none;stroke:#000000;stroke-width:0.5;stroke-linecap:butt;stroke-linejoin:miter;stroke-miterlimit:4;stroke-opacity:1;stroke-dasharray:none" />
    <path
       d="m 537.67278,95.164871 2.03664,-4.582439"
       id="path4337"
       style="fill:none;stroke:#000000;stroke-width:0.5;stroke-linecap:butt;stroke-linejoin:miter;stroke-miterlimit:4;stroke-opacity:1;stroke-dasharray:none" />
    <path
       d="m 247.45168,26.173714 114.81554,-0.25458 c 31.64229,0.545847 63.12729,1.642182 93.43083,6.873658"
       id="path4339"
       style="fill:none;stroke:#000000;stroke-width:1px;stroke-linecap:butt;stroke-linejoin:miter;stroke-opacity:1" />
    <path
       d="m 159.87619,145.31711 284.11118,0.50916"
       id="path4367"
       style="fill:none;stroke:#152968;stroke-width:1px;stroke-linecap:butt;stroke-linejoin:miter;stroke-opacity:1" />
    <path
       d="m 200.86355,90.582432 c -2.72136,5.574485 -3.61839,19.358428 -5.0916,30.549588 l 0.25458,36.91409 c 0.25482,7.32146 -0.59131,13.50927 8.9103,14.0019 l 130.5995,0.50916 c 2.99268,-29.66702 5.13323,-58.86924 0.76374,-84.520537"
       id="path4341"
       style="fill:none;stroke:#000000;stroke-width:1px;stroke-linecap:butt;stroke-linejoin:miter;stroke-opacity:1" />
    <path
       d="m 335.28175,172.55717 84.26595,-0.50916 c 7.1398,0.34362 9.5695,-3.06372 10.94694,-8.65572 11.79554,-27.08602 23.59107,-30.94794 35.38661,-34.11371 4.58907,-1.4863 4.36364,-4.2327 5.09159,-6.7991 l 3.05496,-31.642468"
       id="path4343"
       style="fill:none;stroke:#000000;stroke-width:1px;stroke-linecap:butt;stroke-linejoin:miter;stroke-opacity:1" />
    <path
       d="m 177.855,81.805653 c 3.86635,5.217904 15.71847,10.732273 27.86087,-2.127745 l 31.54414,-40.715869 c 3.18901,-4.35715 2.0722,-7.92049 -0.78558,-11.331911 l -2.45469,-2.349243 -2.3274,2.414762 3.04746,2.985693 c 2.20126,1.849887 1.86624,4.333846 0,7.200608 l -31.53354,39.62518 c -7.18099,7.864584 -14.20421,9.027703 -23.23475,2.072824 z"
       id="path4345"
       style="fill:#c0c0c0;fill-opacity:1;stroke:#000000;stroke-width:0.30000001;stroke-linecap:butt;stroke-linejoin:miter;stroke-miterlimit:4;stroke-opacity:1;stroke-dasharray:none" />
    <path
       d="m 344.19204,34.065691 79.93809,2.545799 1.52748,53.461785 -81.46557,-1.527479 z"
       id="rect2995-15-4"
       style="fill:#add8e6;fill-opacity:1;fill-rule:nonzero;stroke:none" />
    <path
       d="M 442.42504,46.225839 C 436.75671,39.732944 431.0624,36.609996 426.89037,36.89635 l 0.82022,53.379723 43.84202,0.656856 z"
       id="rect2995-15-7-3"
       style="fill:#add8e6;fill-opacity:1;fill-rule:nonzero;stroke:#000000;stroke-width:0.5;stroke-miterlimit:4;stroke-opacity:1;stroke-dasharray:none" />
    <path
       d="m 423.39571,36.621841 0.36003,53.46451 5.40046,0 -0.90008,-53.644525 z"
       id="path4363"
       style="fill:#a9a9a9;fill-opacity:1;stroke:#000000;stroke-width:0.5;stroke-linecap:butt;stroke-linejoin:miter;stroke-miterlimit:4;stroke-opacity:1;stroke-dasharray:none" />
    <path
       d="m 258.34873,32.419059 76.85224,0.36003 0,56.336729 -78.47238,0 z"
       id="rect2995-15"
       style="fill:#add8e6;fill-opacity:1;fill-rule:nonzero;stroke:none" />
    <path
       d="M 476.68021,90.266366 448.05779,45.802616 C 437.88118,30.020481 430.94384,32.845464 423.03568,31.581416 368.62428,27.549164 313.38143,28.051125 258.5018,28.701173 245.23179,29.246215 243.21273,34.85419 239.06017,39.502084 l -38.34324,51.124313 3.24027,1.080091 43.38366,-56.164738 c 2.91233,-2.132267 4.43556,-2.875428 5.9405,-3.600304 l 83.70707,-0.72006 86.04725,2.700227 c 5.19736,1.493223 12.41732,-0.752073 21.96185,13.321125 l 28.80243,46.263901 z"
       id="path4365"
       style="fill:#c0c0c0;fill-opacity:1;stroke:#000000;stroke-width:0.5;stroke-linecap:butt;stroke-linejoin:miter;stroke-miterlimit:4;stroke-opacity:1;stroke-dasharray:none" />
    <path
       d="m 259.16235,32.029053 -1.52748,55.753004 -48.87934,0 34.87745,-46.842707 c 3.89844,-3.864707 5.32617,-9.458918 15.52937,-8.910297 z"
       id="path4361"
       style="fill:#c0c0c0;fill-opacity:1;stroke:#000000;stroke-width:0.5;stroke-linecap:butt;stroke-linejoin:miter;stroke-miterlimit:4;stroke-opacity:1;stroke-dasharray:none" />
    <path
       d="m 206.09414,88.486671 34.72567,-47.88926 c 3.88457,-5.032313 8.9058,-9.677099 17.55852,-9.463136 l 78.63915,0.195463 -0.71741,57.216061 -4.32786,0 1.78206,-54.480103 -75.61024,-0.25458 c -10.83604,0.103155 -14.53919,8.073385 -17.31143,11.456097 l -30.61511,40.554645 -2.10746,2.618489 z"
       id="path4351"
       style="fill:#c0c0c0;fill-opacity:1;stroke:#000000;stroke-width:0.5;stroke-linecap:butt;stroke-linejoin:miter;stroke-miterlimit:4;stroke-opacity:1;stroke-dasharray:none" />
    <path
       d="m 341.31711,31.296197 -0.76374,56.516742 5.34618,0 0,-53.207203 77.03226,2.874944 c 11.23487,0.0515 13.35141,4.268272 18.75905,10.147012 l 26.40704,42.221886 5.0916,0 -29.27669,-44.806065 c -5.0383,-6.83526 -12.16209,-11.180234 -21.91196,-11.083273 -26.89458,-1.304924 -53.78916,-1.996859 -80.68374,-2.664043 z"
       id="path4353"
       style="fill:#c0c0c0;fill-opacity:1;stroke:#000000;stroke-width:0.5;stroke-linecap:butt;stroke-linejoin:miter;stroke-miterlimit:4;stroke-opacity:1;stroke-dasharray:none" />
    <path
       d="m 336.30007,87.782053 138.93698,2.29122 -1.65477,2.545799 -137.02763,-1.52748 z"
       id="path4349"
       style="fill:#a9a9a9;fill-opacity:1;stroke:#000000;stroke-width:0.5;stroke-linecap:butt;stroke-linejoin:miter;stroke-miterlimit:4;stroke-opacity:1;stroke-dasharray:none" />
    <path
       d="m 243.12382,45.866414 c 3.50815,-4.692743 9.36968,-10.546804 13.54171,-10.26045 l -1.7075,49.63029 -40.60175,0.296825 z"
       id="rect2995-15-7"
       style="fill:#add8e6;fill-opacity:1;fill-rule:nonzero;stroke:#000000;stroke-width:0.5;stroke-miterlimit:4;stroke-opacity:1;stroke-dasharray:none" />
    <path
       d="m 208.62824,88.227568 127.92641,-0.44552 0.38187,3.309539 -134.54549,0.25458 3.80404,-2.896782 z"
       id="path4347"
       style="fill:#c0c0c0;fill-opacity:1;stroke:#000000;stroke-width:0.5;stroke-linecap:butt;stroke-linejoin:miter;stroke-miterlimit:4;stroke-opacity:1;stroke-dasharray:none" />
    <path
       d="m 477.08276,29.228673 c -5.75687,4.843496 -4.6275,9.06097 -3.05496,13.238155 l 36.15035,48.624764 c 4.32577,2.23201 6.43073,0.401297 10.94694,1.782059 -4.77989,-0.284825 -7.00695,-3.394604 -10.43778,-8.401136 -11.18216,-15.230398 -23.06123,-28.31599 -33.60455,-43.533166 -1.33775,-3.274583 0.6125,-7.235226 3.30954,-9.164877 l 0,-1.591124 -2.48216,-1.463835 z"
       id="path4359"
       style="fill:#a9a9a9;fill-opacity:1;stroke:#000000;stroke-width:0.5;stroke-linecap:butt;stroke-linejoin:miter;stroke-miterlimit:4;stroke-opacity:1;stroke-dasharray:none" />
    <path
       d="m 475.04612,90.073273 39.96905,1.018319 4.07328,2.111205 -45.56981,-0.583725 z"
       id="path4357"
       style="fill:#a9a9a9;fill-opacity:1;stroke:#000000;stroke-width:0.5;stroke-linecap:butt;stroke-linejoin:miter;stroke-miterlimit:4;stroke-opacity:1;stroke-dasharray:none" />
    <path
       d="m 482.61503,32.41546 -2.727,1.706937 c -1.72896,1.378929 -2.77992,5.848435 -0.41691,8.689033 l 33.66819,45.007923 c 5.15848,4.929024 9.48641,4.574477 19.05789,-1.352763 z"
       id="rect2995-15-2-2"
       style="fill:#add8e6;fill-opacity:1;fill-rule:nonzero;stroke:none" />
    <path
       d="m 531.81744,85.490834 -5.85533,3.309539 c -3.30954,1.280369 -6.61908,2.073245 -9.92862,0 L 480.64688,43.485148 c -2.54775,-3.542904 -2.46945,-6.449358 1.01832,-9.674037 l 1.52748,-1.018319 -2.80038,-2.545799 -3.8187,4.327858 c -1.18943,1.993862 -1.51766,4.203023 0,6.873658 l 36.40493,48.370184 c 2.8355,3.320223 10.35459,4.600859 18.13881,0.25458 l 4.07329,-2.5458 z"
       id="path4355"
       style="fill:#a9a9a9;fill-opacity:1;stroke:#000000;stroke-width:0.5;stroke-linecap:butt;stroke-linejoin:miter;stroke-miterlimit:4;stroke-opacity:1;stroke-dasharray:none" />
    <path
       d="m 436.34997,158.04611 c 11.35686,-38.10269 92.84315,-37.83558 102.85029,12.729"
       id="path4369"
       style="fill:none;stroke:#152968;stroke-width:1px;stroke-linecap:butt;stroke-linejoin:miter;stroke-opacity:1" />
    <path
       d="m 60.59002,161.10107 c 0.124186,-6.28925 2.187556,-11.24778 5.430713,-17.46495 12.285782,-31.38372 88.952017,-41.7376 99.816237,18.60151 2.00783,5.57508 3.3525,13.56589 6.25905,14.64739"
       id="path4371"
       style="fill:none;stroke:#152968;stroke-width:1px;stroke-linecap:butt;stroke-linejoin:miter;stroke-opacity:1" />
    <path
       d="m 173.17461,174.8735 257.06168,0.36003 1.98017,3.60031 -256.70166,-0.36003 z"
       id="path4373"
       style="fill:#c0c0c0;fill-opacity:1;stroke:#000000;stroke-width:0.5;stroke-linecap:butt;stroke-linejoin:miter;stroke-miterlimit:4;stroke-opacity:1;stroke-dasharray:none" />
    <path
       d="m 527.80452,147.33118 86.40729,2.52021"
       id="path4375"
       style="fill:none;stroke:#152968;stroke-width:1px;stroke-linecap:butt;stroke-linejoin:miter;stroke-opacity:1" />
    <path
       d="m 309.26609,110.7881 c 6.00051,4.57593 12.00101,5.94704 18.00152,0"
       id="path4377"
       style="fill:none;stroke:#152968;stroke-width:1px;stroke-linecap:butt;stroke-linejoin:miter;stroke-opacity:1" />
    <path
       d="m 307.38354,102.34775 21.13075,0 c 2.71012,-0.053 5.50893,2.74908 4.06187,4.2721 l -1.51789,4.27507 -23.84433,0 -2.19771,-4.27032 c -0.73808,-1.43414 0.8337,-3.02057 2.36731,-4.27685 z"
       id="rect2995-7-1"
       style="fill:#a9a9a9;fill-opacity:1;fill-rule:nonzero;stroke:#000000;stroke-width:0.97063565;stroke-opacity:1" />
    <g
       id="g4401"
       style="stroke-width:0.5;stroke-miterlimit:4;stroke-dasharray:none">
      <path
         d="m 310.16616,110.60808 0.18002,-3.78032 16.38138,0.36003 -0.18002,3.60031"
         id="path4397"
         style="fill:none;stroke:#000000;stroke-width:0.5;stroke-linecap:butt;stroke-linejoin:miter;stroke-miterlimit:4;stroke-opacity:1;stroke-dasharray:none" />
      <path
         d="m 308.54603,106.82776 19.62165,-0.18001"
         id="path4399"
         style="fill:none;stroke:#000000;stroke-width:0.5;stroke-linecap:butt;stroke-linejoin:miter;stroke-miterlimit:4;stroke-opacity:1;stroke-dasharray:none" />
    </g>
    <g
       transform="translate(134.0213,2.4302028)"
       id="g4401-7"
       style="stroke-width:0.5;stroke-miterlimit:4;stroke-dasharray:none">
      <path
         d="m 310.16616,110.60808 0.18002,-3.78032 16.38138,0.36003 -0.18002,3.60031"
         id="path4397-1"
         style="fill:none;stroke:#000000;stroke-width:0.5;stroke-linecap:butt;stroke-linejoin:miter;stroke-miterlimit:4;stroke-opacity:1;stroke-dasharray:none" />
      <path
         d="m 308.54603,106.82776 19.62165,-0.18001"
         id="path4399-8"
         style="fill:none;stroke:#000000;stroke-width:0.5;stroke-linecap:butt;stroke-linejoin:miter;stroke-miterlimit:4;stroke-opacity:1;stroke-dasharray:none" />
    </g>
  </g>
</svg>
