<?xml version="1.0" encoding="UTF-8" standalone="no"?>
<!-- Created with Inkscape (http://www.inkscape.org/) -->
<svg
   xmlns:dc="http://purl.org/dc/elements/1.1/"
   xmlns:cc="http://web.resource.org/cc/"
   xmlns:rdf="http://www.w3.org/1999/02/22-rdf-syntax-ns#"
   xmlns:svg="http://www.w3.org/2000/svg"
   xmlns="http://www.w3.org/2000/svg"
   xmlns:xlink="http://www.w3.org/1999/xlink"
   xmlns:sodipodi="http://inkscape.sourceforge.net/DTD/sodipodi-0.dtd"
   xmlns:inkscape="http://www.inkscape.org/namespaces/inkscape"
   width="744.09448819"
   height="1052.3622047"
   id="svg2"
   sodipodi:version="0.32"
   inkscape:version="0.43"
   sodipodi:docbase="/home/paulliu/CG/watia"
   sodipodi:docname="watia.svg">
  <defs
     id="defs4">
    <linearGradient
       id="linearGradient31765">
      <stop
         style="stop-color:#16151a;stop-opacity:0;"
         offset="0"
         id="stop31767" />
      <stop
         id="stop32650"
         offset="0"
         style="stop-color:#16151a;stop-opacity:1;" />
      <stop
         style="stop-color:#16151a;stop-opacity:0;"
         offset="1"
         id="stop31769" />
    </linearGradient>
    <linearGradient
       inkscape:collect="always"
       xlink:href="#linearGradient31765"
       id="linearGradient31771"
       x1="214.96664"
       y1="655.86218"
       x2="238.5"
       y2="662.36218"
       gradientUnits="userSpaceOnUse"
       gradientTransform="translate(0.82056,-117)" />
    <linearGradient
       id="linearGradient19428">
      <stop
         style="stop-color:#ff8fff;stop-opacity:0.28025478;"
         offset="0"
         id="stop19430" />
      <stop
         style="stop-color:#ffcbff;stop-opacity:0;"
         offset="1"
         id="stop19432" />
    </linearGradient>
    <radialGradient
       inkscape:collect="always"
       xlink:href="#linearGradient19428"
       id="radialGradient19434"
       cx="309.5"
       cy="296.86218"
       fx="309.5"
       fy="296.86218"
       r="12.999606"
       gradientTransform="matrix(1,2.57498e-17,-6.338294e-19,0.615373,4.877383e-14,114.1812)"
       gradientUnits="userSpaceOnUse" />
    <linearGradient
       id="linearGradient3185">
      <stop
         id="stop3187"
         offset="0"
         style="stop-color:#8a8a8a;stop-opacity:1;" />
      <stop
         style="stop-color:#9f9f9f;stop-opacity:1;"
         offset="0.296875"
         id="stop3189" />
      <stop
         id="stop3191"
         offset="1"
         style="stop-color:#6e6e6e;stop-opacity:1;" />
    </linearGradient>
    <linearGradient
       id="linearGradient16389">
      <stop
         style="stop-color:#dadada;stop-opacity:1;"
         offset="0"
         id="stop16391" />
      <stop
         style="stop-color:#131313;stop-opacity:1;"
         offset="1"
         id="stop16393" />
    </linearGradient>
    <linearGradient
       id="linearGradient16303">
      <stop
         id="stop16305"
         offset="0"
         style="stop-color:#161616;stop-opacity:1;" />
      <stop
         id="stop16307"
         offset="1"
         style="stop-color:#565656;stop-opacity:1;" />
    </linearGradient>
    <linearGradient
       id="linearGradient10145">
      <stop
         style="stop-color:#c0c0c0;stop-opacity:1;"
         offset="0"
         id="stop10147" />
      <stop
         style="stop-color:#fefefe;stop-opacity:1;"
         offset="1"
         id="stop10149" />
    </linearGradient>
    <linearGradient
       id="linearGradient6635">
      <stop
         style="stop-color:#000000;stop-opacity:1;"
         offset="0"
         id="stop6637" />
      <stop
         style="stop-color:#b9b9b9;stop-opacity:1;"
         offset="1"
         id="stop6639" />
    </linearGradient>
    <linearGradient
       id="linearGradient4001">
      <stop
         style="stop-color:#fffae7;stop-opacity:1;"
         offset="0"
         id="stop4003" />
      <stop
         style="stop-color:#fcddbf;stop-opacity:1;"
         offset="1"
         id="stop4005" />
    </linearGradient>
    <linearGradient
       id="linearGradient2230">
      <stop
         style="stop-color:#cdcdcd;stop-opacity:1;"
         offset="0"
         id="stop2232" />
      <stop
         id="stop3111"
         offset="0.296875"
         style="stop-color:#f5f5f5;stop-opacity:1;" />
      <stop
         style="stop-color:#9d9d9d;stop-opacity:1;"
         offset="1"
         id="stop2234" />
    </linearGradient>
    <linearGradient
       inkscape:collect="always"
       xlink:href="#linearGradient2230"
       id="linearGradient2236"
       x1="331.80841"
       y1="41.099228"
       x2="353.60718"
       y2="173.3557"
       gradientUnits="userSpaceOnUse" />
    <linearGradient
       inkscape:collect="always"
       xlink:href="#linearGradient4001"
       id="linearGradient4007"
       x1="358.88229"
       y1="181.73236"
       x2="408.5"
       y2="206.73235"
       gradientUnits="userSpaceOnUse" />
    <linearGradient
       inkscape:collect="always"
       xlink:href="#linearGradient6635"
       id="linearGradient6641"
       x1="315.18335"
       y1="159.37061"
       x2="317.77542"
       y2="194.13797"
       gradientUnits="userSpaceOnUse" />
    <linearGradient
       inkscape:collect="always"
       xlink:href="#linearGradient6635"
       id="linearGradient6649"
       x1="314.70398"
       y1="159.2285"
       x2="315.37848"
       y2="193.42746"
       gradientUnits="userSpaceOnUse" />
    <linearGradient
       inkscape:collect="always"
       xlink:href="#linearGradient10145"
       id="linearGradient10151"
       x1="309.03601"
       y1="157.95142"
       x2="315.23813"
       y2="174.92197"
       gradientUnits="userSpaceOnUse" />
    <linearGradient
       inkscape:collect="always"
       xlink:href="#linearGradient10145"
       id="linearGradient10155"
       gradientUnits="userSpaceOnUse"
       x1="309.03601"
       y1="157.95142"
       x2="315.23813"
       y2="174.92197"
       gradientTransform="matrix(-0.881175,0.472791,0.472791,0.881175,576.6792,-141.1253)" />
    <linearGradient
       inkscape:collect="always"
       xlink:href="#linearGradient2230"
       id="linearGradient13663"
       x1="272.34573"
       y1="46.323448"
       x2="158.34573"
       y2="344.11218"
       gradientUnits="userSpaceOnUse" />
    <linearGradient
       inkscape:collect="always"
       xlink:href="#linearGradient2230"
       id="linearGradient14544"
       x1="434.00436"
       y1="40.184937"
       x2="553.41479"
       y2="285.68494"
       gradientUnits="userSpaceOnUse" />
    <linearGradient
       inkscape:collect="always"
       xlink:href="#linearGradient16303"
       id="linearGradient16301"
       x1="479.70471"
       y1="540.79633"
       x2="259.04999"
       y2="375.79633"
       gradientUnits="userSpaceOnUse" />
    <linearGradient
       inkscape:collect="always"
       xlink:href="#linearGradient4001"
       id="linearGradient17188"
       x1="534.90002"
       y1="573.59308"
       x2="552.59998"
       y2="574.59308"
       gradientUnits="userSpaceOnUse" />
    <linearGradient
       inkscape:collect="always"
       xlink:href="#linearGradient16303"
       id="linearGradient3147"
       x1="390.52051"
       y1="606.74622"
       x2="1.117749"
       y2="598.16473"
       gradientUnits="userSpaceOnUse" />
    <linearGradient
       inkscape:collect="always"
       xlink:href="#linearGradient16303"
       id="linearGradient4028"
       x1="225.5"
       y1="625.8136"
       x2="166.5"
       y2="615.8136"
       gradientUnits="userSpaceOnUse" />
    <linearGradient
       inkscape:collect="always"
       xlink:href="#linearGradient16303"
       id="linearGradient4909"
       x1="581.5"
       y1="595.36218"
       x2="363.63263"
       y2="595.36218"
       gradientUnits="userSpaceOnUse" />
    <linearGradient
       inkscape:collect="always"
       xlink:href="#linearGradient16303"
       id="linearGradient5791"
       x1="214"
       y1="644.11218"
       x2="264.5"
       y2="644.11218"
       gradientUnits="userSpaceOnUse" />
    <linearGradient
       inkscape:collect="always"
       xlink:href="#linearGradient16303"
       id="linearGradient6680"
       x1="393.31488"
       y1="287.96472"
       x2="331.77951"
       y2="252.96294"
       gradientUnits="userSpaceOnUse" />
    <linearGradient
       inkscape:collect="always"
       xlink:href="#linearGradient16303"
       id="linearGradient7561"
       x1="343.33069"
       y1="280.64352"
       x2="393.29782"
       y2="254.48056"
       gradientUnits="userSpaceOnUse" />
    <linearGradient
       inkscape:collect="always"
       xlink:href="#linearGradient16303"
       id="linearGradient8442"
       x1="367.37231"
       y1="301.50317"
       x2="330.71884"
       y2="257.13223"
       gradientUnits="userSpaceOnUse" />
    <linearGradient
       inkscape:collect="always"
       xlink:href="#linearGradient16303"
       id="linearGradient9323"
       x1="375.38531"
       y1="294.52072"
       x2="395.59592"
       y2="260.22604"
       gradientUnits="userSpaceOnUse" />
    <linearGradient
       inkscape:collect="always"
       xlink:href="#linearGradient16303"
       id="linearGradient10217"
       x1="256.63187"
       y1="92.976891"
       x2="243.90395"
       y2="91.032349"
       gradientUnits="userSpaceOnUse" />
    <linearGradient
       inkscape:collect="always"
       xlink:href="#linearGradient16303"
       id="linearGradient11971"
       x1="272.4256"
       y1="63.97789"
       x2="246.59079"
       y2="57.083599"
       gradientUnits="userSpaceOnUse" />
    <linearGradient
       inkscape:collect="always"
       xlink:href="#linearGradient16303"
       id="linearGradient12852"
       x1="258.34729"
       y1="117.05579"
       x2="241.09308"
       y2="110.51505"
       gradientUnits="userSpaceOnUse" />
    <linearGradient
       inkscape:collect="always"
       xlink:href="#linearGradient16303"
       id="linearGradient13733"
       x1="405.93384"
       y1="64.488739"
       x2="432.71899"
       y2="55.473125"
       gradientUnits="userSpaceOnUse" />
    <linearGradient
       inkscape:collect="always"
       xlink:href="#linearGradient16303"
       id="linearGradient14614"
       x1="427.2876"
       y1="82.476624"
       x2="436.55713"
       y2="78.58754"
       gradientUnits="userSpaceOnUse" />
    <linearGradient
       inkscape:collect="always"
       xlink:href="#linearGradient16303"
       id="linearGradient15495"
       x1="435.40915"
       y1="114.39404"
       x2="459.59134"
       y2="104.67133"
       gradientUnits="userSpaceOnUse" />
    <linearGradient
       inkscape:collect="always"
       xlink:href="#linearGradient16389"
       id="linearGradient16387"
       x1="423.86917"
       y1="932.46576"
       x2="424"
       y2="1003.3622"
       gradientUnits="userSpaceOnUse" />
    <linearGradient
       inkscape:collect="always"
       xlink:href="#linearGradient16389"
       id="linearGradient17274"
       x1="376.20929"
       y1="971.48718"
       x2="408.25"
       y2="973.23718"
       gradientUnits="userSpaceOnUse" />
    <linearGradient
       inkscape:collect="always"
       xlink:href="#linearGradient16389"
       id="linearGradient19028"
       x1="387.5"
       y1="973.98718"
       x2="448.51562"
       y2="973.98718"
       gradientUnits="userSpaceOnUse" />
    <radialGradient
       inkscape:collect="always"
       xlink:href="#linearGradient16389"
       id="radialGradient19911"
       cx="416.54404"
       cy="996.82025"
       fx="416.54404"
       fy="996.82025"
       r="33.092873"
       gradientTransform="matrix(0.591193,-0.163426,0.163486,0.59141,7.319584,475.7743)"
       gradientUnits="userSpaceOnUse" />
    <linearGradient
       inkscape:collect="always"
       xlink:href="#linearGradient16389"
       id="linearGradient20792"
       x1="343.44388"
       y1="1012.4882"
       x2="420.41135"
       y2="1027.9883"
       gradientUnits="userSpaceOnUse" />
    <linearGradient
       inkscape:collect="always"
       xlink:href="#linearGradient16389"
       id="linearGradient20813"
       gradientUnits="userSpaceOnUse"
       x1="531.00397"
       y1="1008.5991"
       x2="420.41135"
       y2="1027.9883" />
    <linearGradient
       inkscape:collect="always"
       xlink:href="#linearGradient16389"
       id="linearGradient20815"
       gradientUnits="userSpaceOnUse"
       x1="472.35281"
       y1="972.21942"
       x2="448.51562"
       y2="972.21942" />
    <linearGradient
       inkscape:collect="always"
       xlink:href="#linearGradient16389"
       id="linearGradient20817"
       gradientUnits="userSpaceOnUse"
       x1="462.47632"
       y1="973.23718"
       x2="394.99176"
       y2="973.23718" />
    <radialGradient
       inkscape:collect="always"
       xlink:href="#linearGradient16389"
       id="radialGradient20819"
       gradientUnits="userSpaceOnUse"
       gradientTransform="matrix(0.264787,-0.367621,0.410629,0.295764,-95.43538,865.4895)"
       cx="448.65085"
       cy="1008.3094"
       fx="448.65085"
       fy="1008.3094"
       r="33.092873" />
    <linearGradient
       inkscape:collect="always"
       xlink:href="#linearGradient16389"
       id="linearGradient20821"
       gradientUnits="userSpaceOnUse"
       x1="423.86917"
       y1="932.46576"
       x2="424"
       y2="1003.3622" />
    <radialGradient
       inkscape:collect="always"
       xlink:href="#linearGradient16389"
       id="radialGradient20823"
       gradientUnits="userSpaceOnUse"
       gradientTransform="matrix(0.496793,5.342587e-2,-5.249178e-2,0.488108,261.9324,488.4188)"
       cx="416.54404"
       cy="996.82025"
       fx="416.54404"
       fy="996.82025"
       r="33.092873" />
    <linearGradient
       inkscape:collect="always"
       xlink:href="#linearGradient16303"
       id="linearGradient2297"
       gradientUnits="userSpaceOnUse"
       x1="372.36948"
       y1="873.50964"
       x2="272.59998"
       y2="873.50964"
       gradientTransform="translate(0,1)" />
    <linearGradient
       inkscape:collect="always"
       xlink:href="#linearGradient16303"
       id="linearGradient2299"
       gradientUnits="userSpaceOnUse"
       x1="396.82803"
       y1="860.59308"
       x2="511.04843"
       y2="852.59308" />
    <linearGradient
       inkscape:collect="always"
       xlink:href="#linearGradient3185"
       id="linearGradient3183"
       x1="274.34381"
       y1="71.958633"
       x2="271.17548"
       y2="217.44585"
       gradientUnits="userSpaceOnUse" />
    <linearGradient
       inkscape:collect="always"
       xlink:href="#linearGradient3185"
       id="linearGradient4068"
       gradientUnits="userSpaceOnUse"
       x1="274.34381"
       y1="71.958633"
       x2="271.17548"
       y2="217.44585"
       gradientTransform="translate(10.43662,-1.237435)" />
    <linearGradient
       inkscape:collect="always"
       xlink:href="#linearGradient3185"
       id="linearGradient4072"
       gradientUnits="userSpaceOnUse"
       x1="274.34381"
       y1="71.958633"
       x2="271.17548"
       y2="217.44585"
       gradientTransform="translate(32.00338,7.601403)" />
    <linearGradient
       inkscape:collect="always"
       xlink:href="#linearGradient3185"
       id="linearGradient4076"
       gradientUnits="userSpaceOnUse"
       x1="274.34381"
       y1="71.958633"
       x2="271.17548"
       y2="217.44585"
       gradientTransform="translate(28.46781,-35.88567)" />
    <linearGradient
       inkscape:collect="always"
       xlink:href="#linearGradient3185"
       id="linearGradient4080"
       gradientUnits="userSpaceOnUse"
       x1="274.34381"
       y1="71.958633"
       x2="271.17548"
       y2="217.44585"
       gradientTransform="translate(46.14555,-39.42121)" />
    <linearGradient
       inkscape:collect="always"
       xlink:href="#linearGradient3185"
       id="linearGradient4084"
       gradientUnits="userSpaceOnUse"
       x1="274.34381"
       y1="71.958633"
       x2="271.17548"
       y2="217.44585"
       gradientTransform="translate(60.9948,-47.90648)" />
    <linearGradient
       inkscape:collect="always"
       xlink:href="#linearGradient3185"
       id="linearGradient4088"
       gradientUnits="userSpaceOnUse"
       x1="274.34381"
       y1="71.958633"
       x2="271.17548"
       y2="217.44585"
       gradientTransform="translate(81.50088,-50.0278)" />
    <linearGradient
       inkscape:collect="always"
       xlink:href="#linearGradient3185"
       id="linearGradient4092"
       gradientUnits="userSpaceOnUse"
       x1="274.34381"
       y1="71.958633"
       x2="271.17548"
       y2="217.44585"
       gradientTransform="matrix(-1,0,0,1,624.8989,-49.3207)" />
    <linearGradient
       inkscape:collect="always"
       xlink:href="#linearGradient3185"
       id="linearGradient4096"
       gradientUnits="userSpaceOnUse"
       x1="274.34381"
       y1="71.958633"
       x2="271.17548"
       y2="217.44585"
       gradientTransform="matrix(-1,0,0,1,641.1623,-52.50268)" />
    <linearGradient
       inkscape:collect="always"
       xlink:href="#linearGradient3185"
       id="linearGradient4100"
       gradientUnits="userSpaceOnUse"
       gradientTransform="matrix(-1,0,0,1,654.9509,-38.7141)"
       x1="274.34381"
       y1="71.958633"
       x2="271.17548"
       y2="217.44585" />
    <linearGradient
       inkscape:collect="always"
       xlink:href="#linearGradient3185"
       id="linearGradient4104"
       gradientUnits="userSpaceOnUse"
       gradientTransform="matrix(-1,0,0,1,670.5072,-18.20799)"
       x1="274.34381"
       y1="71.958633"
       x2="271.17548"
       y2="217.44585" />
    <linearGradient
       inkscape:collect="always"
       xlink:href="#linearGradient3185"
       id="linearGradient4108"
       gradientUnits="userSpaceOnUse"
       gradientTransform="matrix(-1,0,0,1,680.0532,-21.38998)"
       x1="274.34381"
       y1="71.958633"
       x2="271.17548"
       y2="217.44585" />
    <linearGradient
       inkscape:collect="always"
       xlink:href="#linearGradient3185"
       id="linearGradient4112"
       gradientUnits="userSpaceOnUse"
       gradientTransform="matrix(-1,0,0,1,689.5991,-15.02602)"
       x1="274.34381"
       y1="71.958633"
       x2="271.17548"
       y2="217.44585" />
    <linearGradient
       inkscape:collect="always"
       xlink:href="#linearGradient3185"
       id="linearGradient4120"
       gradientUnits="userSpaceOnUse"
       gradientTransform="matrix(-1,0,0,0.808618,644.2315,-12.32884)"
       x1="274.34381"
       y1="71.958633"
       x2="271.17548"
       y2="217.44585" />
    <linearGradient
       inkscape:collect="always"
       xlink:href="#linearGradient3185"
       id="linearGradient4124"
       gradientUnits="userSpaceOnUse"
       gradientTransform="matrix(-1,0,0,0.808618,655.4815,-19.82884)"
       x1="274.34381"
       y1="71.958633"
       x2="271.17548"
       y2="217.44585" />
    <linearGradient
       inkscape:collect="always"
       xlink:href="#linearGradient3185"
       id="linearGradient4128"
       gradientUnits="userSpaceOnUse"
       gradientTransform="matrix(1,0,0,0.808618,38.51849,0.42116)"
       x1="274.34381"
       y1="71.958633"
       x2="271.17548"
       y2="217.44585" />
    <linearGradient
       inkscape:collect="always"
       xlink:href="#linearGradient3185"
       id="linearGradient4132"
       gradientUnits="userSpaceOnUse"
       gradientTransform="matrix(1,0,0,0.808618,57.01849,-7.82884)"
       x1="274.34381"
       y1="71.958633"
       x2="271.17548"
       y2="217.44585" />
    <linearGradient
       inkscape:collect="always"
       xlink:href="#linearGradient4001"
       id="linearGradient5010"
       gradientUnits="userSpaceOnUse"
       x1="394"
       y1="199.86218"
       x2="349.5"
       y2="67.362183" />
    <linearGradient
       inkscape:collect="always"
       xlink:href="#linearGradient3185"
       id="linearGradient5902"
       gradientUnits="userSpaceOnUse"
       x1="274.34381"
       y1="71.958633"
       x2="271.17548"
       y2="217.44585"
       gradientTransform="translate(-33.9815,53.32371)" />
    <linearGradient
       inkscape:collect="always"
       xlink:href="#linearGradient3185"
       id="linearGradient5906"
       gradientUnits="userSpaceOnUse"
       gradientTransform="translate(-68.26017,54.57371)"
       x1="274.34381"
       y1="71.958633"
       x2="271.17548"
       y2="217.44585" />
    <linearGradient
       inkscape:collect="always"
       xlink:href="#linearGradient3185"
       id="linearGradient5910"
       gradientUnits="userSpaceOnUse"
       gradientTransform="matrix(-1,0,0,1,740.2142,30.3237)"
       x1="274.34381"
       y1="71.958633"
       x2="271.17548"
       y2="217.44585" />
    <linearGradient
       inkscape:collect="always"
       xlink:href="#linearGradient3185"
       id="linearGradient5914"
       gradientUnits="userSpaceOnUse"
       gradientTransform="matrix(-1,0,0,1,728.2602,76.07371)"
       x1="274.34381"
       y1="71.958633"
       x2="271.17548"
       y2="217.44585" />
    <radialGradient
       inkscape:collect="always"
       xlink:href="#linearGradient19428"
       id="radialGradient12547"
       gradientUnits="userSpaceOnUse"
       gradientTransform="matrix(1,6.43745e-17,-1.584574e-18,0.615373,7.477093e-14,114.1812)"
       cx="309.5"
       cy="296.86218"
       fx="309.5"
       fy="296.86218"
       r="12.999606" />
    <linearGradient
       inkscape:collect="always"
       xlink:href="#linearGradient4001"
       id="linearGradient12560"
       gradientUnits="userSpaceOnUse"
       x1="254.90002"
       y1="406.59308"
       x2="278.59998"
       y2="413.70694" />
    <linearGradient
       inkscape:collect="always"
       xlink:href="#linearGradient4001"
       id="linearGradient13435"
       gradientUnits="userSpaceOnUse"
       x1="363"
       y1="255.59308"
       x2="359.09998"
       y2="209.09308" />
    <linearGradient
       inkscape:collect="always"
       xlink:href="#linearGradient4001"
       id="linearGradient14310"
       gradientUnits="userSpaceOnUse"
       x1="464.90002"
       y1="417.09308"
       x2="506.59998"
       y2="407.97269" />
    <linearGradient
       inkscape:collect="always"
       xlink:href="#linearGradient4001"
       id="linearGradient16072"
       gradientUnits="userSpaceOnUse"
       x1="431.05157"
       y1="735.81244"
       x2="397.05157"
       y2="690.09308" />
    <linearGradient
       inkscape:collect="always"
       xlink:href="#linearGradient4001"
       id="linearGradient16074"
       gradientUnits="userSpaceOnUse"
       x1="323.83694"
       y1="733.09308"
       x2="353.83694"
       y2="651.86218" />
    <linearGradient
       inkscape:collect="always"
       xlink:href="#linearGradient31765"
       id="linearGradient22439"
       gradientUnits="userSpaceOnUse"
       gradientTransform="matrix(1.380009,0,0,1.163205,-25.70967,-226.2957)"
       x1="214.96664"
       y1="655.86218"
       x2="234.65706"
       y2="659.01874" />
    <linearGradient
       inkscape:collect="always"
       xlink:href="#linearGradient31765"
       id="linearGradient22443"
       gradientUnits="userSpaceOnUse"
       gradientTransform="matrix(1.386378,0,0,0.986408,42.93517,-91.59875)"
       x1="214.96664"
       y1="655.86218"
       x2="232.23808"
       y2="655.91052" />
    <linearGradient
       inkscape:collect="always"
       xlink:href="#linearGradient31765"
       id="linearGradient22447"
       gradientUnits="userSpaceOnUse"
       gradientTransform="matrix(-1.809697,0,0,1.325991,862.8274,-376.3942)"
       x1="217.93271"
       y1="683.32544"
       x2="228.92706"
       y2="690.62531" />
    <linearGradient
       inkscape:collect="always"
       xlink:href="#linearGradient31765"
       id="linearGradient23330"
       x1="300.90424"
       y1="405.97818"
       x2="346.452"
       y2="403.32654"
       gradientUnits="userSpaceOnUse"
       gradientTransform="translate(2.474874,-2.12132)" />
    <linearGradient
       inkscape:collect="always"
       xlink:href="#linearGradient31765"
       id="linearGradient23334"
       gradientUnits="userSpaceOnUse"
       x1="300.90424"
       y1="405.97818"
       x2="346.452"
       y2="403.32654"
       gradientTransform="translate(-0.707106,7.293975)" />
    <linearGradient
       inkscape:collect="always"
       xlink:href="#linearGradient31765"
       id="linearGradient23338"
       gradientUnits="userSpaceOnUse"
       gradientTransform="matrix(-1.309682,0,0,1,827.4447,0.2559)"
       x1="300.90424"
       y1="405.97818"
       x2="337.13861"
       y2="412.34216" />
  </defs>
  <sodipodi:namedview
     id="base"
     pagecolor="#ffffff"
     bordercolor="#666666"
     borderopacity="1.0"
     inkscape:pageopacity="0.0"
     inkscape:pageshadow="2"
     inkscape:zoom="1"
     inkscape:cx="460.08566"
     inkscape:cy="686.89187"
     inkscape:document-units="px"
     inkscape:current-layer="layer1"
     inkscape:window-width="1270"
     inkscape:window-height="953"
     inkscape:window-x="180"
     inkscape:window-y="0"
     showguides="true"
     inkscape:guide-bbox="true" />
  <metadata
     id="metadata7">
    <rdf:RDF>
      <cc:Work
         rdf:about="">
        <dc:format>image/svg+xml</dc:format>
        <dc:type
           rdf:resource="http://purl.org/dc/dcmitype/StillImage" />
        <dc:title>girl with silver hair</dc:title>
        <dc:date>2006-03-20</dc:date>
        <dc:creator>
          <cc:Agent
             rdf:about="http://www.cis.nctu.edu.tw/~is86007/">
            <dc:title>Ying-Chun Liu (PaulLiu)</dc:title>
          </cc:Agent>
        </dc:creator>
        <dc:rights>
          <cc:Agent>
            <dc:title>Ying-Chun Liu (PaulLiu)</dc:title>
          </cc:Agent>
        </dc:rights>
        <dc:publisher>
          <cc:Agent>
            <dc:title>Open Clip Art Library</dc:title>
          </cc:Agent>
        </dc:publisher>
        <dc:language>en</dc:language>
        <dc:subject>
          <rdf:Bag>
            <rdf:li>people</rdf:li>
          </rdf:Bag>
        </dc:subject>
        <cc:license
           rdf:resource="http://web.resource.org/cc/PublicDomain" />
      </cc:Work>
      <cc:License
         rdf:about="http://web.resource.org/cc/PublicDomain">
        <cc:permits
           rdf:resource="http://web.resource.org/cc/Reproduction" />
        <cc:permits
           rdf:resource="http://web.resource.org/cc/Distribution" />
        <cc:permits
           rdf:resource="http://web.resource.org/cc/DerivativeWorks" />
      </cc:License>
    </rdf:RDF>
  </metadata>
  <g
     inkscape:label="Layer 1"
     inkscape:groupmode="layer"
     id="layer1"
     style="display:inline" />
  <g
     inkscape:groupmode="layer"
     id="layer15"
     inkscape:label="bg"
     style="display:inline">
    <rect
       style="fill:#ebebeb;fill-opacity:1;stroke:none;stroke-width:1.10000002;stroke-linecap:square;stroke-linejoin:round;stroke-miterlimit:4;stroke-dasharray:none;stroke-dashoffset:0;stroke-opacity:1"
       id="rect5024"
       width="562"
       height="952"
       x="92"
       y="30.362183" />
  </g>
  <g
     inkscape:groupmode="layer"
     id="layer7"
     inkscape:label="back hair"
     style="display:inline">
    <path
       style="fill:url(#linearGradient13663);fill-opacity:1;fill-rule:evenodd;stroke:#000000;stroke-width:0.5;stroke-linecap:butt;stroke-linejoin:miter;stroke-miterlimit:4;stroke-dasharray:none;stroke-opacity:1"
       d="M 271,91.362183 C 201.39509,41.801174 145.5,193.86218 152,247.36218 C 154.17324,224.02291 179.79824,159.39791 193.06743,140.29522 C 192.83662,140.69254 199.25,125.61218 206,120.36218 C 184.67228,139.42678 161.64806,234.83081 179.5,266.36218 C 174,239.86218 199.5,158.36218 206,152.86218 C 191.16685,163.98144 184.5,270.36218 194,279.36218 C 194.06228,256.88294 215.5,170.86218 226,148.36218 C 216.60374,169.66981 215.60374,178.54481 215.45281,178.53041 C 208.30187,206.516 225,275.61218 230,283.36218 C 229.22953,249.36218 235.5,165.36218 240,154.36218 C 245.45609,144.78995 254.5,144.86218 256,137.36218 C 265.278,129.50985 275.5,96.362183 271,91.362183 z "
       id="path11907"
       sodipodi:nodetypes="ccccccccccccc" />
    <path
       style="fill:url(#linearGradient14544);fill-opacity:1;fill-rule:evenodd;stroke:#000000;stroke-width:0.5;stroke-linecap:butt;stroke-linejoin:miter;stroke-miterlimit:4;stroke-dasharray:none;stroke-opacity:1"
       d="M 425.5,91.862183 C 432.71678,62.447849 457,61.862183 468,68.362183 C 532.30619,102.17463 544.82033,211.99052 543,223.36218 C 536,206.36218 509,132.86218 502,128.36218 C 508.5,136.86218 526.5,224.86218 529,239.36218 C 506,228.86218 491.5,157.86218 485,148.36218 C 496.5,167.36218 502,228.36218 497,247.36218 C 493,225.86218 486,189.86218 479.5,182.36218 C 477.80359,177.38518 476,149.86218 470,137.36218 C 474.94461,150.86218 488,237.36218 486,256.36218 C 468.05793,242.81146 448.5,174.36218 448,160.36218 C 447.96936,150.22988 422.5,108.36218 425.5,91.862183 z "
       id="path11909"
       sodipodi:nodetypes="cccccccccccc" />
  </g>
  <g
     inkscape:groupmode="layer"
     id="layer16"
     inkscape:label="back hair dark">
    <path
       style="fill:url(#linearGradient5902);fill-opacity:1;fill-rule:evenodd;stroke:none;stroke-width:1px;stroke-linecap:butt;stroke-linejoin:miter;stroke-opacity:1;display:inline"
       d="M 262.34044,94.81356 C 228.27889,146.88032 219.56658,213.74696 228.26506,278.4108 C 207.39931,213.33705 230.07178,114.29453 262.34044,94.81356 z "
       id="path5900"
       sodipodi:nodetypes="ccc" />
    <path
       style="fill:url(#linearGradient5906);fill-opacity:1;fill-rule:evenodd;stroke:none;stroke-width:1px;stroke-linecap:butt;stroke-linejoin:miter;stroke-opacity:1;display:inline"
       d="M 255.56177,99.56356 C 218.00022,134.13032 190.78791,209.49696 193.98639,279.6608 C 179.12064,208.08705 211.79311,121.04453 255.56177,99.56356 z "
       id="path5904"
       sodipodi:nodetypes="ccc" />
    <path
       style="fill:url(#linearGradient5910);fill-opacity:1;fill-rule:evenodd;stroke:none;stroke-width:1px;stroke-linecap:butt;stroke-linejoin:miter;stroke-opacity:1;display:inline"
       d="M 440.89226,121.31356 C 452.45381,171.88032 458.66612,215.24696 484.46764,253.9108 C 459.33339,175.83705 464.16092,159.79453 440.89226,121.31356 z "
       id="path5908"
       sodipodi:nodetypes="ccc" />
    <path
       style="fill:url(#linearGradient5914);fill-opacity:1;fill-rule:evenodd;stroke:none;stroke-width:1px;stroke-linecap:butt;stroke-linejoin:miter;stroke-opacity:1;display:inline"
       d="M 475.93823,157.18856 C 479.99978,183.75532 490.71209,200.99696 496.51361,244.6608 C 492.37936,197.58705 490.70689,177.79453 475.93823,157.18856 z "
       id="path5912"
       sodipodi:nodetypes="ccc" />
  </g>
  <g
     inkscape:groupmode="layer"
     id="layer9"
     inkscape:label="hair deco"
     style="display:inline">
    <path
       style="fill:url(#linearGradient11971);fill-opacity:1.0;fill-rule:evenodd;stroke:#000000;stroke-width:1px;stroke-linecap:butt;stroke-linejoin:miter;stroke-opacity:1"
       d="M 250.3158,87.691756 C 245.14508,81.59296 238.51596,62.633659 235.99689,53.2203 C 233.6546,45.574708 239.44403,42.083368 241.65374,42.967252 C 245.80799,42.967252 249.07836,43.541776 251.90679,44.735019 C 256.32621,45.928261 255.79588,48.403135 259.33141,47.740222 C 262.86694,47.077309 261.40854,44.514047 266.04893,42.083368 C 270.68932,39.652688 274.6668,37.708145 277.89297,38.017504 C 279.88171,38.857193 281.91464,40.669155 281.07495,44.027912 C 281.29592,47.916999 276.39036,57.904883 273.11999,65.594669 C 271.61739,69.925698 266.2699,82.87459 264.45794,89.636299 C 261.40854,90.91793 253.71875,88.133698 250.3158,87.691756 z "
       id="path9328"
       sodipodi:nodetypes="ccccccccccc" />
    <path
       style="fill:url(#linearGradient12852);fill-opacity:1.0;fill-rule:evenodd;stroke:#000000;stroke-width:1px;stroke-linecap:butt;stroke-linejoin:miter;stroke-opacity:1"
       d="M 250.49258,96.884144 C 244.43798,102.14325 240.37211,112.08694 239.00209,116.68313 C 235.8643,120.57222 234.53848,136.96826 235.113,139.31055 C 237.80885,137.23342 239.97436,135.33307 241.30019,135.95179 C 243.68668,137.27762 244.39379,140.72477 246.78027,143.19964 C 250.05064,144.43708 252.21615,144.12771 252.96745,142.31575 C 253.71875,137.49858 258.88947,105.41362 259.68497,99.182241 C 256.06105,97.547058 253.3652,97.105116 250.49258,96.884144 z "
       id="path9330"
       sodipodi:nodetypes="cccccccc" />
    <path
       style="fill:url(#linearGradient13733);fill-opacity:1.0;fill-rule:evenodd;stroke:#000000;stroke-width:1px;stroke-linecap:butt;stroke-linejoin:miter;stroke-opacity:1"
       d="M 433.1029,76.378047 C 437.43393,70.102474 440.92527,37.708145 441.23463,34.48197 C 438.89234,36.38232 440.26236,34.481971 439.29009,33.774864 C 438.31782,33.244534 438.80395,33.332922 437.34554,31.653543 C 432.28595,29.090281 421.74119,33.332921 417.193,35.54263 C 413.52488,38.636222 404.73024,40.536572 402.87409,40.492378 C 399.25017,43.099834 402.21118,47.740223 403.40442,50.922203 C 405.12799,55.34162 408.53094,59.716843 409.76838,61.705581 C 414.54135,69.351173 419.84465,76.775795 422.4963,80.090358 C 425.14795,79.692611 429.83253,78.057426 433.1029,76.378047 z "
       id="path9334"
       sodipodi:nodetypes="cccccccccc" />
    <path
       style="fill:url(#linearGradient15495);fill-opacity:1.0;fill-rule:evenodd;stroke:#000000;stroke-width:1px;stroke-linecap:butt;stroke-linejoin:miter;stroke-opacity:1"
       d="M 433.63323,85.040105 C 446.58213,93.569579 458.77972,116.77152 460.50329,124.63808 C 461.87331,128.08522 460.94522,132.9024 460.32651,133.47692 C 458.1168,134.405 453.29964,134.75855 450.95735,133.30014 C 448.61506,131.48818 442.2511,132.37206 440.35075,135.42146 C 435.62197,138.82441 435.00325,141.52025 434.87067,141.25509 C 431.02578,135.8634 425.98764,94.497659 426.38539,88.398862 C 427.8438,87.249815 432.88193,85.349466 433.63323,85.040105 z "
       id="path9336"
       sodipodi:nodetypes="cccccccc" />
    <path
       style="fill:url(#linearGradient14614);fill-opacity:1.0;fill-rule:evenodd;stroke:#000000;stroke-width:1px;stroke-linecap:butt;stroke-linejoin:miter;stroke-opacity:1"
       d="M 433.63323,72.48896 C 430.76061,70.986358 421.745,74.477698 420.72854,78.145814 C 420.41918,80.75327 426.16442,88.310474 428.15316,89.989853 C 429.78834,90.962125 431.73288,89.945659 435.75455,86.984649 C 436.59424,83.139756 435.62197,74.875445 433.63323,72.48896 z "
       id="path9332"
       sodipodi:nodetypes="ccccc" />
    <path
       style="fill:url(#linearGradient10217);fill-opacity:1.0;fill-rule:evenodd;stroke:#000000;stroke-width:1px;stroke-linecap:butt;stroke-linejoin:miter;stroke-opacity:1"
       d="M 245.71961,86.454319 C 245.0125,88.973387 243.73087,93.790552 244.83572,97.414474 C 248.59222,100.86162 252.52551,101.65711 257.9172,102.36422 C 260.30369,99.18224 261.18757,96.221231 262.15984,91.75762 C 263.13211,87.294009 262.55759,89.017581 261.80629,84.509775 C 258.93367,83.18395 249.78548,82.874591 245.71961,86.454319 z "
       id="path9326"
       sodipodi:nodetypes="cccccc" />
  </g>
  <g
     inkscape:groupmode="layer"
     id="layer6"
     inkscape:label="body"
     style="display:inline">
    <path
       style="fill:url(#linearGradient17188);fill-opacity:1;fill-rule:evenodd;stroke:#000000;stroke-width:1.20000005;stroke-linecap:butt;stroke-linejoin:miter;stroke-miterlimit:4;stroke-dasharray:none;stroke-opacity:1"
       d="M 338,217.36218 C 338.03841,217.69947 337.5,247.86218 337.5,247.86218 C 325.5,250.86218 315.57241,238.36218 300,238.36218 C 288.5,238.36218 279.70928,247.7663 277,253.86218 C 273,258.86218 253.5,342.36218 253,348.86218 C 253.69083,356.38144 245,388.86218 244.5,392.36218 C 230.17434,406.24595 196.08278,490.65523 195,493.36218 C 193,498.36218 180.25034,530.06633 174.5,536.86218 C 169.5,545.86218 159.5,564.86218 159.5,564.86218 C 161.5,567.86218 162.18156,584.54394 164,587.36218 C 171,588.86218 170.5,573.86218 172,579.36218 C 172,579.36218 170.5,585.36218 170,588.36218 C 170,588.36218 176.99442,599.01353 188.5,599.36218 C 207,569.36218 197,549.36218 197,549.36218 C 200.5,536.86218 225.37583,488.15191 227,484.36218 C 233.5,474.86218 265.24995,424.00117 268.5,417.86218 C 274,407.36218 280.5,388.58233 280.5,383.36218 C 280.5,371.36218 309,284.36218 309,284.36218 C 309,284.36218 307.5,297.86218 309.5,298.86218 C 309.5,298.86218 297.32757,335.62927 302,358.36218 C 302.5,370.86218 315.04158,390.92507 311,399.86218 C 315.5,405.86218 300,448.36218 297.5,465.36218 C 289.07144,481.63771 282,562.36218 282,562.36218 L 314,691.86218 C 310,694.36218 316.5,713.36218 316.5,713.36218 C 290.5,740.86218 311,941.86218 335.5,972.36218 C 335.5,972.36218 346.16852,988.76272 365,974.36218 C 352,918.86218 356,753.36218 368,727.36218 C 368,727.36218 373.81514,684.80759 371,676.36218 C 369.5,671.86218 374,505.36218 374,505.36218 L 383,670.36218 C 379,683.36218 382.47931,688.3864 397,761.36218 C 401.97931,786.3864 405.16212,959.3134 409,972.36218 C 412,987.36218 430.094,979.21295 439,972.36218 C 450,960.36218 461.03051,766.37533 445,714.36218 C 442.90087,707.55126 436.57866,701.38065 438.1875,683.67468 C 439,662.61218 458.25283,563.79397 454,544.36218 C 453,521.36218 418.80707,418.83488 420,397.36218 C 426,383.36218 435.30992,354.01101 434.5,342.86218 C 432,333.36218 429.3125,309.67468 421,286.36218 C 430.1875,301.04968 442.87049,381.37279 444,394.36218 C 445,405.86218 464,472.36218 464,472.36218 C 464,472.36218 502.96428,559.89534 509,566.36218 C 520.5,574.86218 529,561.36218 529,561.36218 C 523,558.36218 511,521.36218 511,521.36218 C 511,521.36218 484,406.86218 480,398.36218 C 471.35462,380.33889 472.96585,292.73709 459,264.36218 C 455,258.86218 451.16954,243.99698 436,245.36218 C 410.5,248.86218 391.15751,252.66345 383,245.36218 C 380.5,239.86218 377.5,212.36218 377.5,212.36218 C 366.5,220.36218 350.5,219.36218 338,217.36218 z "
       id="path10158"
       sodipodi:nodetypes="cccccccccccccccccccccccccccccccsccscccccccccccccccc" />
  </g>
  <g
     inkscape:groupmode="layer"
     id="layer18"
     inkscape:label="body dark"
     style="display:inline">
    <path
       style="fill:url(#linearGradient12560);fill-opacity:1;fill-rule:evenodd;stroke:none;stroke-width:1.20000005;stroke-linecap:butt;stroke-linejoin:miter;stroke-miterlimit:4;stroke-dasharray:none;stroke-opacity:1;display:inline"
       d="M 309,284.36218 C 334,299.36218 348.5,249.36218 301,239.36218 C 289.74668,236.99306 282.70928,250.7663 280,256.86218 C 276,261.86218 255,342.86218 254.5,349.36218 C 255.19083,356.88144 247.5,389.86218 247,393.36218 C 232.67434,407.24595 198.58278,491.15523 197.5,493.86218 C 195.5,498.86218 182.75034,531.06633 177,537.86218 C 172,546.86218 161.5,565.86218 161.5,565.86218 C 163.5,568.86218 164.18156,583.54394 166,586.36218 C 173,587.86218 170.5,573.86218 172,579.36218 C 172,579.36218 170.5,585.36218 170,588.36218 C 170,588.36218 176.99442,599.01353 188.5,599.36218 C 207,569.36218 197,549.36218 197,549.36218 C 200.5,536.86218 223.37583,487.15191 225,483.36218 C 231.5,473.86218 263.24995,423.50117 266.5,417.36218 C 272,406.86218 278,388.08233 278,382.86218 C 278,370.86218 309,284.36218 309,284.36218 z "
       id="path12556"
       sodipodi:nodetypes="cscccscccccccccsc" />
    <path
       style="fill:url(#linearGradient14310);fill-opacity:1;fill-rule:evenodd;stroke:none;stroke-width:1.20000005;stroke-linecap:butt;stroke-linejoin:miter;stroke-miterlimit:4;stroke-dasharray:none;stroke-opacity:1;display:inline"
       d="M 437,246.86218 C 421.83046,248.22738 411.8125,271.67468 421,286.36218 C 430.1875,301.04968 444.87049,381.37279 446,394.36218 C 447,405.86218 466,472.36218 466,472.36218 C 466,472.36218 502.96428,559.89534 509,566.36218 C 520.5,574.86218 529,561.36218 529,561.36218 C 523,558.36218 511,521.86218 511,521.86218 C 511,521.86218 483.5,407.36218 479.5,398.86218 C 470.85462,380.83889 470.46585,294.23709 456.5,265.86218 C 452.5,260.36218 452.16954,245.49698 437,246.86218 z "
       id="path12554"
       sodipodi:nodetypes="cssccccccc" />
    <path
       style="fill:url(#linearGradient13435);fill-opacity:1;fill-rule:evenodd;stroke:none;stroke-width:1.20000005;stroke-linecap:butt;stroke-linejoin:miter;stroke-miterlimit:4;stroke-dasharray:none;stroke-opacity:1;display:inline"
       d="M 381.5,247.86218 C 379,242.36218 377.5,212.36218 377.5,212.36218 C 366.5,220.36218 351,218.86218 338.5,216.86218 C 340.03841,218.19947 338.5,248.36218 338.5,248.36218 L 322,293.36218 L 366,333.36218 L 404,294.36218 L 401,251.36218 L 381.5,247.86218 z "
       id="path12552"
       sodipodi:nodetypes="ccccccccc" />
    <path
       style="fill:url(#linearGradient16072);fill-opacity:1;fill-rule:evenodd;stroke:none;stroke-width:1.20000005;stroke-linecap:butt;stroke-linejoin:miter;stroke-miterlimit:4;stroke-dasharray:none;stroke-opacity:1;display:inline"
       d="M 382.75,672.36218 C 381.625,700.23718 383.60431,689.5114 399,760.86218 C 399.6727,763.97978 398.96676,777.30422 398.78782,777.07807 C 398.85888,777.47693 452.38432,774.72726 452.37225,774.93023 C 452.36017,775.0082 450.26884,761.82439 449.84165,755.95788 C 449.41446,750.09138 449.4014,745.54219 448.79587,740.38939 C 448.19033,735.2366 447.99232,729.48021 447.19521,725.19931 C 446.39811,720.91841 445.00191,717.613 444,714.36218 C 441.90087,707.55126 436.07866,701.38065 437.6875,683.67468"
       id="path16064"
       sodipodi:nodetypes="csccssssc" />
    <path
       style="fill:url(#linearGradient16074);fill-opacity:1;fill-rule:evenodd;stroke:none;stroke-width:1.20000005;stroke-linecap:butt;stroke-linejoin:miter;stroke-miterlimit:4;stroke-dasharray:none;stroke-opacity:1;display:inline"
       d="M 319.5,651.86218 C 315.5,654.36218 316.5,713.36218 316.5,713.36218 C 314.875,715.08093 314.93164,717.47741 313.65955,720.46765 C 312.38745,723.45788 311.28662,727.54187 310.34668,731.63562 C 309.40674,735.72937 309.62769,740.33288 308.99915,745.36218 C 308.37061,750.39148 306.89258,755.84655 306.55469,761.64343 C 306.2168,767.4403 305.10776,779.98416 304.45105,779.47546 C 305.04434,779.96676 360.55078,769.62976 360.64062,769.11999 C 359.73047,769.48523 359.61035,758.90173 360.15308,754.55542 C 360.6958,750.2091 361.27637,746.22497 361.89258,742.66394 C 362.50879,739.1029 362.66064,732.96496 363.84595,732.31103 C 366.24592,730.98698 366.25,726.98718 367,725.36218 C 367,725.36218 374.31514,681.55759 369.125,662.73718"
       id="path16068"
       sodipodi:nodetypes="ccssssccssscc" />
    <path
       style="fill:none;fill-opacity:0.75;fill-rule:evenodd;stroke:#000000;stroke-width:1px;stroke-linecap:butt;stroke-linejoin:miter;stroke-opacity:1"
       d="M 343,479.36218 C 352,490.36218 374.5,504.86218 374.5,504.86218 C 374.5,504.86218 399.5,488.36218 404.5,479.36218"
       id="path23340"
       sodipodi:nodetypes="ccc" />
    <path
       sodipodi:type="arc"
       style="fill:#fcddbf;fill-opacity:1;stroke:none;stroke-width:1.10000002;stroke-linecap:square;stroke-linejoin:round;stroke-miterlimit:4;stroke-dasharray:none;stroke-dashoffset:0;stroke-opacity:1"
       id="path23344"
       sodipodi:cx="323.5"
       sodipodi:cy="333.86218"
       sodipodi:rx="2.5"
       sodipodi:ry="2.5"
       d="M 326 333.86218 A 2.5 2.5 0 1 1  321,333.86218 A 2.5 2.5 0 1 1  326 333.86218 z"
       transform="translate(2,5.5)" />
    <path
       sodipodi:type="arc"
       style="fill:#fcddbf;fill-opacity:1;stroke:none;stroke-width:1.10000002;stroke-linecap:square;stroke-linejoin:round;stroke-miterlimit:4;stroke-dasharray:none;stroke-dashoffset:0;stroke-opacity:1;display:inline"
       id="path24219"
       sodipodi:cx="323.5"
       sodipodi:cy="333.86218"
       sodipodi:rx="2.5"
       sodipodi:ry="2.5"
       d="M 326 333.86218 A 2.5 2.5 0 1 1  321,333.86218 A 2.5 2.5 0 1 1  326 333.86218 z"
       transform="translate(88.5,5.5)" />
  </g>
  <g
     inkscape:groupmode="layer"
     id="layer8"
     inkscape:label="cloth"
     style="display:inline">
    <path
       style="fill:url(#linearGradient2299);fill-opacity:1;fill-rule:evenodd;stroke:#000000;stroke-width:1.20000005;stroke-linecap:butt;stroke-linejoin:miter;stroke-miterlimit:4;stroke-dasharray:none;stroke-opacity:1;display:inline"
       d="M 397.42804,765.35297 C 401.32589,815.34384 407.08106,965.83779 409,972.36218 C 412,987.36218 430.094,979.21295 439,972.36218 C 447.875,966.23718 458.13263,823.49047 452.26144,766.99211 C 439.39026,773.49375 413.53019,774.36209 397.42804,765.35297 z "
       id="path1420"
       sodipodi:nodetypes="ccccc" />
    <path
       style="fill:url(#linearGradient2297);fill-opacity:1;fill-rule:evenodd;stroke:#000000;stroke-width:1.20000005;stroke-linecap:butt;stroke-linejoin:miter;stroke-miterlimit:4;stroke-dasharray:none;stroke-opacity:1;display:inline"
       d="M 304.0625,767.73718 C 295,829.23718 323.25,958.11218 335.5,973.36218 C 335.5,973.36218 346.16852,989.76272 365,975.36218 C 358.5,947.61218 352.25,825.36218 361.125,767.79968 C 343,777.23718 327.125,779.23718 304.0625,767.73718 z "
       id="path1418"
       sodipodi:nodetypes="ccccc" />
    <path
       style="fill:url(#linearGradient9323);fill-opacity:1;fill-rule:evenodd;stroke:#000000;stroke-width:1px;stroke-linecap:butt;stroke-linejoin:miter;stroke-opacity:1"
       d="M 394.21203,253.33152 L 398.63145,256.69028 C 397.39401,260.40259 357.2657,313.61238 354.79083,313.4356 L 352.13918,309.54651 C 354.43728,308.48585 393.50492,257.2206 394.21203,253.33152 z "
       id="path5799"
       sodipodi:nodetypes="ccccc" />
    <path
       style="fill:url(#linearGradient8442);fill-opacity:1;fill-rule:evenodd;stroke:#000000;stroke-width:1px;stroke-linecap:butt;stroke-linejoin:miter;stroke-opacity:1"
       d="M 329.15821,256.33672 L 334.10795,253.68507 C 332.87051,257.92771 375.4737,311.31427 378.12535,312.37493 L 375.29693,316.08725 C 370.70073,315.91047 331.45631,263.93812 329.15821,256.33672 z "
       id="path5797"
       sodipodi:nodetypes="ccccc" />
    <path
       style="fill:url(#linearGradient7561);fill-opacity:1;fill-rule:evenodd;stroke:#000000;stroke-width:1px;stroke-linecap:butt;stroke-linejoin:miter;stroke-opacity:1"
       d="M 397.92434,253.68507 C 392.79782,258.45804 341.35579,288.33331 333.04729,289.39397 L 329.68854,285.15132 C 338.88093,284.79777 391.3836,253.33152 396.6869,249.26566 L 397.92434,253.68507 z "
       id="path5795"
       sodipodi:nodetypes="ccccc" />
    <path
       style="fill:url(#linearGradient6680);fill-opacity:1;fill-rule:evenodd;stroke:#000000;stroke-width:1px;stroke-linecap:butt;stroke-linejoin:miter;stroke-opacity:1"
       d="M 330.57242,249.08888 C 333.40085,254.74573 396.33335,289.04041 400.04566,289.57074 L 397.57079,292.57595 C 390.49972,291.69207 331.63308,257.75094 328.62788,253.33152 C 328.62788,253.33152 327.44192,248.64167 330.57242,249.08888 z "
       id="path5793"
       sodipodi:nodetypes="ccccc" />
    <path
       style="fill:url(#linearGradient4909);fill-opacity:1;fill-rule:evenodd;stroke:#000000;stroke-width:1px;stroke-linecap:butt;stroke-linejoin:miter;stroke-opacity:1"
       d="M 533.5,539.86218 C 542.5,544.36218 587,612.86218 595,622.36218 C 595,622.36218 600,628.36218 592.5,631.36218 C 587.20687,633.47943 584,629.36218 583,638.86218 C 582.38959,644.66109 572,650.86218 572,650.86218 L 482,541.36218 L 533.5,539.86218 z "
       id="path2248"
       sodipodi:nodetypes="ccccccc" />
    <path
       style="fill:url(#linearGradient4028);fill-opacity:1;fill-rule:evenodd;stroke:#000000;stroke-width:1px;stroke-linecap:butt;stroke-linejoin:miter;stroke-opacity:1;display:inline"
       d="M 170,577.36218 C 165.25,592.86218 158.75,610.98718 157,627.36218 C 167.75,648.23718 177.75,659.36218 193,654.86218 C 195.75,643.86218 201.25,608.73718 208,585.36218 C 202.25,575.98718 183.75,573.86218 170,577.36218 z "
       id="path2242"
       sodipodi:nodetypes="ccccc" />
    <path
       style="fill:url(#linearGradient5791);fill-opacity:1;fill-rule:evenodd;stroke:#000000;stroke-width:1px;stroke-linecap:butt;stroke-linejoin:miter;stroke-opacity:1;display:inline"
       d="M 241.5,685.86218 C 254.5,666.36218 260,626.36218 263,621.86218 L 264,622.36218 L 245.5,602.36218 L 214.5,653.36218 L 241.5,685.86218 z "
       id="path2254"
       sodipodi:nodetypes="cc" />
    <path
       style="fill:url(#linearGradient3147);fill-opacity:1;fill-rule:evenodd;stroke:#000000;stroke-width:1px;stroke-linecap:butt;stroke-linejoin:miter;stroke-opacity:1;display:inline"
       d="M 262,474.36218 C 190.99096,542.21023 182.12663,646.51152 182,673.86218 C 234.76702,717.62745 251.38936,682.93239 239.5,663.36218 C 231.4649,650.13619 237.02287,636.5681 244,635.36218 C 257.27287,633.0681 262.21494,646.32777 268,656.36218 C 275.63798,669.61054 283.32168,688.17831 294.5,701.86218 C 304.7309,714.38627 313.625,720.86218 325,716.86218 C 334.61549,713.48091 334.875,694.73718 332,685.86218 C 327.72248,672.65767 323.75,670.11218 323.5,661.36218 C 333.75,670.61218 341.53061,681.89893 351,688.86218 C 374.33594,706.02209 385.98874,717.45214 403,702.86218 C 411.67078,695.42556 411.14387,692.25315 421,690.86218 C 430.13773,689.57259 445.25,699.36218 458.5,689.86218 C 472.68876,679.6891 485.01036,676.24525 482,656.86218 C 480.3885,646.48611 491.26619,621.82919 502.5,622.86218 C 513.375,623.86218 516.13741,637.36334 525.5,644.86218 C 538.59262,655.34854 566.375,662.86218 582,652.36218 C 570.625,634.36218 547.875,613.48718 530,592.86218 C 492.51971,549.61569 485.02304,521.46683 446.5,467.86218 C 430.13998,445.09728 281.33125,455.89147 262,474.36218 z "
       id="path2244"
       sodipodi:nodetypes="ccsssssscssssssscsss" />
    <path
       style="fill:none;fill-opacity:0.75;fill-rule:evenodd;stroke:#000000;stroke-width:1px;stroke-linecap:butt;stroke-linejoin:miter;stroke-opacity:1"
       d="M 238,639.36218 C 237.5,629.36218 258.5,565.36218 264,559.86218"
       id="path2250"
       sodipodi:nodetypes="cc" />
    <path
       style="fill:none;fill-opacity:0.75;fill-rule:evenodd;stroke:#000000;stroke-width:1px;stroke-linecap:butt;stroke-linejoin:miter;stroke-opacity:1;display:inline"
       d="M 508,624.36218 C 504,613.36218 469,550.36218 462.5,546.36218"
       id="path2256"
       sodipodi:nodetypes="cc" />
    <path
       style="fill:none;fill-opacity:0.75;fill-rule:evenodd;stroke:#000000;stroke-width:1px;stroke-linecap:butt;stroke-linejoin:miter;stroke-opacity:1;display:inline"
       d="M 323,661.86218 C 332,643.36218 349.5,547.86218 348.5,539.36218"
       id="path2252"
       sodipodi:nodetypes="cc" />
    <path
       style="fill:url(#linearGradient16301);fill-opacity:1;fill-rule:evenodd;stroke:#000000;stroke-width:1.10000002;stroke-linecap:butt;stroke-linejoin:miter;stroke-miterlimit:4;stroke-dasharray:none;stroke-opacity:1"
       d="M 320,243.86218 C 324.16789,245.52056 329.59919,245.98632 332.5,247.36218 C 332.5,249.12995 327.90317,273.97767 329,280.36218 C 340.8802,290.45901 364.51714,318.13363 368,318.86218 C 370.77576,318.17652 386.96815,297.74086 399.5,281.86218 C 399.83426,278.00432 394.15533,251.8052 395.32322,248.72462 C 398.01776,249.24911 403.31066,248.34593 406.46967,248.50342 C 407.05914,251.24301 409.56955,276.91422 412,281.86218 C 449.25547,337.1915 438.89734,357.05 424.5,391.86218 C 422.12348,392.02613 422.83211,395.59962 424.23744,396.1854 C 425.11244,398.1854 425.80546,397.08185 426.93934,399.86218 C 427.18934,402.11218 425.02665,402.57449 424,405.36218 C 423.15013,407.44276 425.74937,411.383 434.5,425.86218 C 455.625,452.36218 496.07412,498.92373 508.5,511.36218 C 517.92068,517.61344 550.0717,541.02271 553.5,549.86218 C 542.78617,570.19213 521.3033,572.92005 501,560.86218 C 496.07627,565.95165 497.06282,572.95165 493.5,584.36218 C 481.27513,595.94949 476.64277,595.10634 462,592.36218 C 446.8269,600.75495 444.62563,606.07601 442,610.86218 C 438.31371,618.83033 422.26472,640.18756 402,646.86218 C 355.57233,652.82969 340.54873,626.76167 328.41421,607.6854 C 318.5778,599.56929 314.21447,604.53375 307.5,610.86218 C 302.73008,614.53896 298.32322,621.37322 286,621.86218 C 265.72183,618.63883 258.00216,597.34441 257.5,587.36218 C 256.99784,583.92068 257.54289,576.46205 255,574.86218 C 251.92678,573.61586 248.62868,579.3104 244.5,590.86218 C 242.49264,596.05 237.44302,620.0604 230,620.36218 C 207.53096,620.48718 204.8986,595.7283 202,591.36218 C 200.33883,588.94061 197.96599,600.2571 188,599.36218 C 176.6198,597.4066 166.54074,591.30672 168.5,565.86218 C 188.25678,525.79931 291.05441,422.67898 307.5,408.36218 C 304.88388,405.12474 303.96605,403.78605 304.5,402.36218 C 305.03033,400.94797 310.18993,401.40337 309,400.36218 C 308.29289,398.24086 308,388.36218 308,388.36218 C 288.32843,359.83185 307.48732,295.38869 313,283.86218 C 320.95495,278.91243 317.24632,253.87106 320,243.86218 z "
       id="path14547"
       sodipodi:nodetypes="cccccccccccccccccccccccccccccccccccc" />
    <path
       style="fill:none;fill-opacity:0.75;fill-rule:evenodd;stroke:#000000;stroke-width:1px;stroke-linecap:butt;stroke-linejoin:miter;stroke-opacity:1"
       d="M 202,590.36218 C 200,573.36218 235,511.86218 247.5,502.36218"
       id="path1355"
       sodipodi:nodetypes="cc" />
    <path
       style="fill:none;fill-opacity:0.75;fill-rule:evenodd;stroke:#000000;stroke-width:1px;stroke-linecap:butt;stroke-linejoin:miter;stroke-opacity:1"
       d="M 252,575.36218 C 256.5,558.86218 293,491.36218 307,477.86218"
       id="path1357"
       sodipodi:nodetypes="cc" />
    <path
       style="fill:none;fill-opacity:0.75;fill-rule:evenodd;stroke:#000000;stroke-width:1px;stroke-linecap:butt;stroke-linejoin:miter;stroke-opacity:1"
       d="M 463,592.36218 C 437,586.86218 397.5,522.86218 397,514.86218"
       id="path2236"
       sodipodi:nodetypes="cc" />
    <path
       style="fill:none;fill-opacity:0.75;fill-rule:evenodd;stroke:#000000;stroke-width:1px;stroke-linecap:butt;stroke-linejoin:miter;stroke-opacity:1"
       d="M 501.5,560.36218 C 483,556.36218 445,497.86218 445,489.36218"
       id="path2238"
       sodipodi:nodetypes="cc" />
  </g>
  <g
     inkscape:groupmode="layer"
     id="layer19"
     inkscape:label="cloth dark">
    <path
       style="fill:url(#linearGradient31771);fill-opacity:1;fill-rule:evenodd;stroke:none;stroke-width:1px;stroke-linecap:butt;stroke-linejoin:miter;stroke-opacity:1;display:inline"
       d="M 252.82056,495.86218 L 221.40635,538.65507 C 221.40635,538.65507 213.96701,557.07297 210.82056,563.36218 C 207.65421,569.69117 207.82056,570.48718 205.82056,575.36218 C 203.82056,580.23718 200.37763,593.10759 202.93147,597.10482 L 213.69924,613.95837 L 226.32056,602.36218 L 228.82056,589.36218 L 246.32056,526.36218 L 252.82056,495.86218 z "
       id="path30890"
       sodipodi:nodetypes="cczzzccccc" />
    <path
       style="fill:url(#linearGradient22439);fill-opacity:1;fill-rule:evenodd;stroke:none;stroke-width:1px;stroke-linecap:butt;stroke-linejoin:miter;stroke-opacity:1;display:inline"
       d="M 298.03192,489.65877 L 275.69574,527.0146 C 275.69574,527.0146 254.3675,567.57671 252.67288,573.74532 C 256.60527,576.03611 255.79585,575.57674 257.28584,575.74737 C 256.52582,582.918 259.69731,599.5665 263.65544,604.35211 C 265.71595,608.56831 274.52787,618.61218 274.52787,618.61218 L 285.48244,610.46975 L 288.93246,595.34809 L 312.32006,468.55491 L 298.03192,489.65877 z "
       id="path22437"
       sodipodi:nodetypes="cccccccccc" />
    <path
       style="fill:url(#linearGradient22443);fill-opacity:1;fill-rule:evenodd;stroke:none;stroke-width:1px;stroke-linecap:butt;stroke-linejoin:miter;stroke-opacity:1;display:inline"
       d="M 358.97777,502.89082 L 345.73151,546.91543 C 345.73151,546.91543 337.21337,570.7439 334.27626,577.04044 C 331.1945,583.6471 326.82985,600.36095 324.34337,603.23698 C 327.63128,605.21731 331.51191,609.72169 333.68516,614.19436 C 336.60841,618.16703 341.0064,624.89082 341.0064,624.89082 L 355.56337,617.98596 L 359.02931,605.16266 L 364.90493,543.01895 L 358.97777,502.89082 z "
       id="path22441"
       sodipodi:nodetypes="cccccccccc" />
    <path
       style="fill:url(#linearGradient22447);fill-opacity:1;fill-rule:evenodd;stroke:none;stroke-width:1px;stroke-linecap:butt;stroke-linejoin:miter;stroke-opacity:1;display:inline"
       d="M 438.26304,483.2132 L 456.6146,515.87732 C 456.6146,515.87732 471.35059,530.97344 475.18452,539.43765 C 479.20727,548.31873 490.89179,551.76832 494.51118,558.23253 C 498.13057,564.69674 496.29693,576.1694 490.06544,579.09423 L 473.74264,586.75558 L 454.74082,577.47364 L 450.21658,560.23575 L 440.07202,494.02242 L 438.26304,483.2132 z "
       id="path22445"
       sodipodi:nodetypes="cczzzccccc" />
    <path
       style="fill:url(#linearGradient23330);fill-opacity:1;fill-rule:evenodd;stroke:none;stroke-width:1px;stroke-linecap:butt;stroke-linejoin:miter;stroke-opacity:1"
       d="M 307.76822,395.10643 L 308.82889,400.5865 C 313.07153,407.30401 341.88815,410.86203 357.26569,406.59692 C 351.60884,405.71304 316.60705,403.76849 307.76822,395.10643 z "
       id="path22449"
       sodipodi:nodetypes="cccc" />
    <path
       style="fill:url(#linearGradient23334);fill-opacity:1;fill-rule:evenodd;stroke:none;stroke-width:1px;stroke-linecap:butt;stroke-linejoin:miter;stroke-opacity:1"
       d="M 306.53078,405.93594 L 305.64691,410.0018 C 309.88955,416.71931 338.70617,420.27733 354.08371,416.01222 C 348.42686,415.12834 315.36961,414.598 306.53078,405.93594 z "
       id="path23332"
       sodipodi:nodetypes="cccc" />
    <path
       style="fill:url(#linearGradient23338);fill-opacity:1;fill-rule:evenodd;stroke:none;stroke-width:1px;stroke-linecap:butt;stroke-linejoin:miter;stroke-opacity:1"
       d="M 426.6518,399.07468 L 426.2184,402.96376 C 420.66189,409.68127 396.00277,413.41607 375.86308,409.15096 C 383.27175,408.26708 418.96484,409.68128 426.6518,399.07468 z "
       id="path23336"
       sodipodi:nodetypes="cccc" />
  </g>
  <g
     inkscape:groupmode="layer"
     id="layer10"
     inkscape:label="shoes"
     style="display:inline">
    <g
       id="g20794">
      <path
         sodipodi:nodetypes="cscscsccc"
         id="path15506"
         d="M 396.25,1004.8622 C 393.25,1005.8622 392.75,1011.3622 393,1013.6122 C 393.44259,1017.5955 394.37084,1021.983 396.25,1023.8622 C 399.25,1026.8622 418.00033,1031.2203 429.75,1031.1122 C 448.7565,1030.9397 451.75,1024.1122 453.25,1022.1122 C 455.5,1021.1122 456.47432,1016.8929 457,1013.6122 C 458.00323,1007.3512 454,1004.3622 454,1004.3622 L 429.25,1015.1122 L 396.25,1004.8622 z "
         style="fill:url(#linearGradient20792);fill-opacity:1.0;fill-rule:evenodd;stroke:#000000;stroke-width:1px;stroke-linecap:butt;stroke-linejoin:miter;stroke-opacity:1" />
      <path
         sodipodi:nodetypes="cccccccccc"
         id="path15502"
         d="M 453.25,953.86218 C 453.25,953.86218 455.71532,966.28921 454,968.86218 C 453,970.36218 456,969.59971 456,972.11218 C 456,974.36218 455.4793,973.80299 453.5,976.11218 C 452,977.86218 455.75,977.86218 455.25,980.36218 C 454.64354,983.39446 453.59567,984.64046 455.5,986.86218 C 457,988.61218 456.75,994.11218 456.75,994.11218 L 436.5,981.86218 L 435,965.11218 L 453.25,953.86218 z "
         style="fill:url(#linearGradient19028);fill-opacity:1.0;fill-rule:evenodd;stroke:#000000;stroke-width:1px;stroke-linecap:butt;stroke-linejoin:miter;stroke-opacity:1" />
      <path
         sodipodi:nodetypes="ccccccc"
         id="path15500"
         d="M 399.25,953.61218 C 399.25,953.61218 394.5,958.11218 397.75,963.11218 C 397.75,963.11218 400.5,970.86218 398.75,973.61218 C 395.98301,977.96031 392,989.36218 394.5,992.86218 L 413.25,980.36218 C 413.5,979.11218 415,965.86218 415,965.86218 L 399.25,953.61218 z "
         style="fill:url(#linearGradient17274);fill-opacity:1.0;fill-rule:evenodd;stroke:#000000;stroke-width:1px;stroke-linecap:butt;stroke-linejoin:miter;stroke-opacity:1" />
      <path
         sodipodi:nodetypes="ccssccccc"
         id="path15504"
         d="M 396.5,989.86218 C 392.25,990.61218 393.22931,1002.3208 394.75,1005.3622 C 398,1011.8622 409,1015.8622 413.5,1017.1122 C 422.26815,1019.5478 435.91816,1019.6357 443.5,1016.3622 C 448.14743,1014.3556 452.99591,1010.193 455.5,1005.6122 C 457.25,1001.6122 460.5,994.36218 457.25,991.36218 C 453.30578,987.72136 437.25,981.36218 437.25,981.36218 C 431.75,977.11218 415.25,978.36218 411.5,981.86218 L 396.5,989.86218 z "
         style="fill:url(#radialGradient20823);fill-opacity:1.0;fill-rule:evenodd;stroke:#000000;stroke-width:1px;stroke-linecap:butt;stroke-linejoin:miter;stroke-opacity:1" />
      <path
         sodipodi:nodetypes="ccccccccccccccc"
         id="path15498"
         d="M 406.98223,949.21573 L 400.75,952.86218 L 417.5,963.86218 C 419.25,962.11218 430.75,962.86218 433.25,963.61218 L 450.75,952.86218 L 445.04289,948.1854 L 445.75,944.86218 L 456,953.86218 L 436.25,966.61218 C 436.25,966.61218 438.56535,978.69165 437.25,981.86218 C 428.37785,977.56665 419.25,978.11218 411.5,981.86218 C 410.29407,976.2345 413.25,966.61218 413.25,966.61218 L 396,952.36218 L 406.83579,945.61218 L 406.98223,949.21573 z "
         style="fill:url(#linearGradient16387);fill-opacity:1.0;fill-rule:evenodd;stroke:#000000;stroke-width:1px;stroke-linecap:butt;stroke-linejoin:miter;stroke-opacity:1" />
    </g>
    <g
       style="display:inline"
       id="g20801"
       transform="matrix(-1,0,0,1,769.4442,0.38084)">
      <path
         sodipodi:nodetypes="cscscsccc"
         id="path20803"
         d="M 396.25,1004.8622 C 393.25,1005.8622 392.75,1011.3622 393,1013.6122 C 393.44259,1017.5955 394.37084,1021.983 396.25,1023.8622 C 399.25,1026.8622 418.00033,1031.2203 429.75,1031.1122 C 448.7565,1030.9397 451.75,1024.1122 453.25,1022.1122 C 455.5,1021.1122 456.47432,1016.8929 457,1013.6122 C 458.00323,1007.3512 454,1004.3622 454,1004.3622 L 429.25,1015.1122 L 396.25,1004.8622 z "
         style="fill:url(#linearGradient20813);fill-opacity:1;fill-rule:evenodd;stroke:#000000;stroke-width:1px;stroke-linecap:butt;stroke-linejoin:miter;stroke-opacity:1" />
      <path
         sodipodi:nodetypes="cccccccccc"
         id="path20805"
         d="M 453.25,953.86218 C 453.25,953.86218 455.71532,966.28921 454,968.86218 C 453,970.36218 456,969.59971 456,972.11218 C 456,974.36218 455.4793,973.80299 453.5,976.11218 C 452,977.86218 455.75,977.86218 455.25,980.36218 C 454.64354,983.39446 453.59567,984.64046 455.5,986.86218 C 457,988.61218 456.75,994.11218 456.75,994.11218 L 436.5,981.86218 L 435,965.11218 L 453.25,953.86218 z "
         style="fill:url(#linearGradient20815);fill-opacity:1;fill-rule:evenodd;stroke:#000000;stroke-width:1px;stroke-linecap:butt;stroke-linejoin:miter;stroke-opacity:1" />
      <path
         sodipodi:nodetypes="ccccccc"
         id="path20807"
         d="M 399.25,953.61218 C 399.25,953.61218 394.5,958.11218 397.75,963.11218 C 397.75,963.11218 400.5,970.86218 398.75,973.61218 C 395.98301,977.96031 392,989.36218 394.5,992.86218 L 413.25,980.36218 C 413.5,979.11218 415,965.86218 415,965.86218 L 399.25,953.61218 z "
         style="fill:url(#linearGradient20817);fill-opacity:1;fill-rule:evenodd;stroke:#000000;stroke-width:1px;stroke-linecap:butt;stroke-linejoin:miter;stroke-opacity:1" />
      <path
         sodipodi:nodetypes="ccssccccc"
         id="path20809"
         d="M 396.5,989.86218 C 392.25,990.61218 393.22931,1002.3208 394.75,1005.3622 C 398,1011.8622 409,1015.8622 413.5,1017.1122 C 422.26815,1019.5478 435.91816,1019.6357 443.5,1016.3622 C 448.14743,1014.3556 452.99591,1010.193 455.5,1005.6122 C 457.25,1001.6122 460.5,994.36218 457.25,991.36218 C 453.30578,987.72136 437.25,981.36218 437.25,981.36218 C 431.75,977.11218 415.25,978.36218 411.5,981.86218 L 396.5,989.86218 z "
         style="fill:url(#radialGradient20819);fill-opacity:1;fill-rule:evenodd;stroke:#000000;stroke-width:1px;stroke-linecap:butt;stroke-linejoin:miter;stroke-opacity:1" />
      <path
         sodipodi:nodetypes="ccccccccccccccc"
         id="path20811"
         d="M 408.57322,949.21573 L 400.75,952.86218 L 417.5,963.86218 C 419.25,962.11218 430.75,962.86218 433.25,963.61218 L 450.75,952.86218 L 445.04289,948.1854 L 445.75,944.86218 L 456,953.86218 L 436.25,966.61218 C 436.25,966.61218 438.56535,978.69165 437.25,981.86218 C 428.37785,977.56665 419.25,978.11218 411.5,981.86218 C 410.29407,976.2345 413.25,966.61218 413.25,966.61218 L 396,952.36218 L 408.95711,944.90507 L 408.57322,949.21573 z "
         style="fill:url(#linearGradient20821);fill-opacity:1;fill-rule:evenodd;stroke:#000000;stroke-width:1px;stroke-linecap:butt;stroke-linejoin:miter;stroke-opacity:1" />
    </g>
  </g>
  <g
     inkscape:groupmode="layer"
     id="layer2"
     inkscape:label="head"
     style="display:inline">
    <path
       style="fill:url(#linearGradient4007);fill-opacity:1;fill-rule:evenodd;stroke:#000000;stroke-width:1px;stroke-linecap:butt;stroke-linejoin:miter;stroke-opacity:1"
       d="M 302,207.86218 C 315.5,217.36218 359.15975,228.79828 365.5,227.86218 C 372,224.36218 405.5,195.36218 409,187.86218 C 413,182.36218 417.5,113.36218 417.5,113.36218 C 394.5,28.86218 256,58.86218 268,150.86218 C 268,150.86218 292.65655,195.40425 302,207.86218 z "
       id="path1337"
       sodipodi:nodetypes="cccccc" />
  </g>
  <g
     inkscape:groupmode="layer"
     id="layer13"
     inkscape:label="head dark"
     style="display:inline">
    <path
       style="fill:url(#linearGradient5010);fill-opacity:1;fill-rule:evenodd;stroke:none;stroke-width:1px;stroke-linecap:butt;stroke-linejoin:miter;stroke-opacity:1;display:inline"
       d="M 295.5,166.86218 C 289.5,145.36218 284.15975,92.29828 290.5,91.36218 C 291.3125,90.92468 296.21875,157.22155 305.31445,162.8114 C 301.41016,139.40124 305.8348,92.518055 305.76562,93.51843 C 305.69644,94.518805 313.19141,151.33874 319.92773,157.33484 C 316.16406,128.33093 320.78125,89.73718 322.375,91.61218 C 324.67843,94.322095 327.53906,143.83093 336.68164,157.70202 C 334.03151,142.67905 335.03906,88.971555 334.42188,89.45593 C 333.64204,90.067958 348.85547,142.01062 359.16992,156.72546 C 348.98438,122.4403 354.0625,72.79968 358.5,84.86218 C 359.5,83.48718 370.6875,133.08093 369.90625,153.49499 C 377.625,131.90905 376.7215,86.226388 375.5,87.54968 C 375.125,87.95593 396.625,123.53405 394.34375,142.13562 C 407.45312,123.1864 404.53006,94.896817 404.87891,95.16198 C 405.26562,95.455925 417.5,113.36218 417.5,113.36218 C 394.5,28.86218 256,58.86218 268,150.86218 C 268,150.86218 286.15655,154.40425 295.5,166.86218 z "
       id="path4135"
       sodipodi:nodetypes="ccczczczccczczccc" />
  </g>
  <g
     inkscape:groupmode="layer"
     id="layer17"
     inkscape:label="head pink">
    <path
       sodipodi:type="arc"
       style="fill:url(#radialGradient19434);fill-opacity:1;stroke:none;stroke-width:0.99921262;stroke-linecap:square;stroke-linejoin:round;stroke-miterlimit:4;stroke-dasharray:none;stroke-dashoffset:0;stroke-opacity:1;display:inline"
       id="path18553"
       sodipodi:cx="309.5"
       sodipodi:cy="296.86218"
       sodipodi:rx="12.5"
       sodipodi:ry="7.5"
       d="M 322 296.86218 A 12.5 7.5 0 1 1  297,296.86218 A 12.5 7.5 0 1 1  322 296.86218 z"
       transform="matrix(1.258668,-0.612989,0.554609,1.138795,-239.2001,44.51709)" />
    <path
       sodipodi:type="arc"
       style="fill:url(#radialGradient12547);fill-opacity:1;stroke:none;stroke-width:0.99921262;stroke-linecap:square;stroke-linejoin:round;stroke-miterlimit:4;stroke-dasharray:none;stroke-dashoffset:0;stroke-opacity:1;display:inline"
       id="path12545"
       sodipodi:cx="309.5"
       sodipodi:cy="296.86218"
       sodipodi:rx="12.5"
       sodipodi:ry="7.5"
       d="M 322 296.86218 A 12.5 7.5 0 1 1  297,296.86218 A 12.5 7.5 0 1 1  322 296.86218 z"
       transform="matrix(1.258668,-0.612989,0.554609,1.138795,-162.7002,27.51711)" />
  </g>
  <g
     inkscape:groupmode="layer"
     id="layer5"
     inkscape:label="eyes"
     style="display:inline">
    <path
       style="fill:url(#linearGradient10151);fill-opacity:1;fill-rule:evenodd;stroke:none;stroke-width:1px;stroke-linecap:butt;stroke-linejoin:miter;stroke-opacity:1"
       d="M 293.62609,175.373 C 293.62609,175.373 304.05591,187.04026 310.59665,189.69191 L 325.97623,184.91894 C 328.98143,181.91374 327.74399,162.29152 327.74399,162.29152 C 313.07152,151.86169 296.63129,155.57401 293.62609,175.373 z "
       id="path9270"
       sodipodi:nodetypes="ccccc" />
    <path
       style="fill:url(#linearGradient10155);fill-opacity:1;fill-rule:evenodd;stroke:none;stroke-width:1px;stroke-linecap:butt;stroke-linejoin:miter;stroke-opacity:1"
       d="M 400.85823,152.23261 C 400.85823,152.23261 397.18392,167.44463 392.67406,172.8736 L 376.86534,175.93911 C 372.79641,174.71182 364.60961,156.83618 364.60961,156.83618 C 372.60749,140.70867 388.84934,136.20708 400.85823,152.23261 z "
       id="path10153"
       sodipodi:nodetypes="ccccc" />
    <path
       sodipodi:type="arc"
       style="fill:url(#linearGradient6641);fill-opacity:1;stroke:#000000;stroke-width:1.10000002;stroke-linecap:square;stroke-linejoin:round;stroke-miterlimit:4;stroke-dasharray:none;stroke-dashoffset:0;stroke-opacity:1"
       id="path4010"
       sodipodi:cx="316"
       sodipodi:cy="176.61218"
       sodipodi:rx="13.5"
       sodipodi:ry="16.25"
       d="M 329.5 176.61218 A 13.5 16.25 0 1 1  302.5,176.61218 A 13.5 16.25 0 1 1  329.5 176.61218 z"
       transform="matrix(0.958765,-0.2842,0.2842,0.958765,-38.66289,93.08963)" />
    <path
       sodipodi:type="arc"
       style="fill:url(#linearGradient6649);fill-opacity:1;stroke:#000000;stroke-width:1.10000002;stroke-linecap:square;stroke-linejoin:round;stroke-miterlimit:4;stroke-dasharray:none;stroke-dashoffset:0;stroke-opacity:1"
       id="path4885"
       sodipodi:cx="316"
       sodipodi:cy="176.61218"
       sodipodi:rx="13.5"
       sodipodi:ry="16.25"
       d="M 329.5 176.61218 A 13.5 16.25 0 1 1  302.5,176.61218 A 13.5 16.25 0 1 1  329.5 176.61218 z"
       transform="matrix(0.958765,-0.2842,0.2842,0.958765,28.8371,77.8398)" />
  </g>
  <g
     inkscape:groupmode="layer"
     id="layer4"
     inkscape:label="face"
     style="display:inline">
    <path
       style="fill:#000000;fill-opacity:1;fill-rule:evenodd;stroke:#000000;stroke-width:0.1;stroke-linecap:butt;stroke-linejoin:miter;stroke-miterlimit:4;stroke-dasharray:none;stroke-opacity:1"
       d="M 292.75,179.11218 L 294.25,175.61218 C 299.5,152.48718 320.8274,155.63504 328.375,164.23718 C 328,163.73718 327.375,162.61218 329,162.98718 C 324.77866,156.78085 297.375,145.11218 292.25,175.48718 L 293.25,176.48718 L 292.75,179.11218 z "
       id="path3114"
       sodipodi:nodetypes="ccccccc" />
    <path
       style="fill:#000000;fill-opacity:1;fill-rule:evenodd;stroke:#000000;stroke-width:0.1;stroke-linecap:butt;stroke-linejoin:miter;stroke-miterlimit:4;stroke-dasharray:none;stroke-opacity:1"
       d="M 404.59636,155.55509 L 401.82535,152.94328 C 387.79119,133.82862 369.48701,145.21826 365.99466,156.11627 C 366.13923,155.50822 366.2639,154.22732 364.92313,155.21908 C 366.32015,147.84436 386.79976,126.21788 403.6097,152.03129 L 403.09129,153.34706 L 404.59636,155.55509 z "
       id="path3116"
       sodipodi:nodetypes="ccccccc" />
    <path
       style="fill:#000000;fill-opacity:1;fill-rule:evenodd;stroke:#000000;stroke-width:0.1;stroke-linecap:butt;stroke-linejoin:miter;stroke-miterlimit:4;stroke-dasharray:none;stroke-opacity:1"
       d="M 310.06632,188.80803 C 312.54119,187.74737 322.53958,185.78182 323.50135,183.85828 C 323.67813,185.27249 326.68333,184.21183 326.68333,184.21183 C 324.38523,186.50993 314.83929,190.39902 311.65731,190.22224 C 311.65731,190.22224 310.69132,189.43303 310.06632,188.80803 z "
       id="path3118"
       sodipodi:nodetypes="ccccc" />
    <path
       style="fill:#000000;fill-opacity:1;fill-rule:evenodd;stroke:#000000;stroke-width:0.1;stroke-linecap:butt;stroke-linejoin:miter;stroke-miterlimit:4;stroke-dasharray:none;stroke-opacity:1"
       d="M 393.22456,169.83419 C 390.58347,170.35821 376.98203,174.21183 375.10134,173.16875 C 375.75492,174.43527 375.15124,175.96618 375.15124,175.96618 C 378.346,176.56285 389.8331,174.0214 392.35801,172.0769 C 392.35801,172.0769 393.06229,170.70305 393.22456,169.83419 z "
       id="path3120"
       sodipodi:nodetypes="ccccc" />
    <path
       style="fill:none;fill-opacity:0.75;fill-rule:evenodd;stroke:#000000;stroke-width:1px;stroke-linecap:butt;stroke-linejoin:miter;stroke-opacity:1"
       d="M 282.48916,165.29672 C 288.49957,143.72996 305.47013,139.48733 321.38003,141.9622"
       id="path3122"
       sodipodi:nodetypes="cc" />
    <path
       style="fill:none;fill-opacity:0.75;fill-rule:evenodd;stroke:#000000;stroke-width:1px;stroke-linecap:butt;stroke-linejoin:miter;stroke-opacity:1"
       d="M 358.85669,136.30535 C 368.75618,125.69875 395.97979,118.62768 406.93995,135.59824"
       id="path3124"
       sodipodi:nodetypes="cc" />
    <path
       style="fill:none;fill-opacity:0.75;fill-rule:evenodd;stroke:#000000;stroke-width:0.5;stroke-linecap:butt;stroke-linejoin:miter;stroke-miterlimit:4;stroke-dasharray:none;stroke-opacity:1"
       d="M 352.49273,180.14597 L 352.49273,186.86348 L 356.38182,191.10612"
       id="path3126" />
  </g>
  <g
     inkscape:groupmode="layer"
     id="layer14"
     inkscape:label="mouth">
    <path
       style="fill:none;fill-opacity:0.75;fill-rule:evenodd;stroke:#000000;stroke-width:1px;stroke-linecap:butt;stroke-linejoin:miter;stroke-opacity:1"
       d="M 356.5,203.86218 C 355.8256,203.01509 359.2047,202.84792 360.5,202.36218"
       id="path5017" />
  </g>
  <g
     inkscape:groupmode="layer"
     id="layer12"
     inkscape:label="thin hair ">
    <path
       style="fill:url(#linearGradient4120);fill-opacity:1;fill-rule:evenodd;stroke:none;stroke-width:1px;stroke-linecap:butt;stroke-linejoin:miter;stroke-opacity:1;display:inline"
       d="M 373.40956,60.438562 C 391.97111,77.877829 395.68342,125.47844 365.98494,160.7858 C 407.35069,112.6134 392.67822,79.021384 373.40956,60.438562 z "
       id="path4114"
       sodipodi:nodetypes="ccc" />
    <path
       style="fill:url(#linearGradient4124);fill-opacity:1;fill-rule:evenodd;stroke:none;stroke-width:1px;stroke-linecap:butt;stroke-linejoin:miter;stroke-opacity:1;display:inline"
       d="M 384.65956,52.938562 C 403.22111,70.37783 406.93342,117.97844 377.23494,153.2858 C 418.60069,105.1134 403.92822,71.52138 384.65956,52.938562 z "
       id="path4122"
       sodipodi:nodetypes="ccc" />
    <path
       style="fill:url(#linearGradient4128);fill-opacity:1;fill-rule:evenodd;stroke:none;stroke-width:1px;stroke-linecap:butt;stroke-linejoin:miter;stroke-opacity:1;display:inline"
       d="M 309.34043,73.18856 C 290.77888,90.62783 287.06657,138.22844 316.76505,173.5358 C 275.3993,125.3634 290.07177,91.77138 309.34043,73.18856 z "
       id="path4126"
       sodipodi:nodetypes="ccc" />
    <path
       style="fill:url(#linearGradient4132);fill-opacity:1;fill-rule:evenodd;stroke:none;stroke-width:1px;stroke-linecap:butt;stroke-linejoin:miter;stroke-opacity:1;display:inline"
       d="M 327.84043,64.93856 C 309.27888,82.37783 305.56657,129.97844 335.26505,165.2858 C 293.8993,117.1134 308.57177,83.52138 327.84043,64.93856 z "
       id="path4130"
       sodipodi:nodetypes="ccc" />
  </g>
  <g
     inkscape:groupmode="layer"
     id="layer3"
     inkscape:label="front hair"
     style="display:inline">
    <path
       style="fill:url(#linearGradient2236);fill-opacity:1;fill-rule:evenodd;stroke:#000000;stroke-width:0.5;stroke-linecap:butt;stroke-linejoin:miter;stroke-miterlimit:4;stroke-dasharray:none;stroke-opacity:1"
       d="M 425.25,141.125 C 425.25,141.125 430.34886,160.85171 426.5,179.625 C 468.94531,79.109375 388.41559,30.797239 327.1875,43.28125 C 274.23287,42.83132 210.11715,137.14145 279.21875,214.90625 C 271.65195,203.77543 253.80726,140.7083 260.5,127.375 C 254.80726,141.04424 265.21875,173.25 265.21875,173.25 C 270.1885,192.01387 280.74391,204.82508 291.28125,214.09375 C 267.78125,181.09375 266.5,133.86218 273,120.36218 C 266.69323,133.95116 271.8329,177.00057 276,181.86218 C 287,201.86218 311.58164,222.37579 317.5,223.36218 C 294.5,203.36218 272.5625,131.92468 279,115.36218 C 274.4375,130.79968 289.67427,161.55253 293.75,166.11218 C 291.25,159.11218 289.44238,115.23579 293,106.36218 C 292,116.61218 307.97061,155.00925 316,160.36218 C 310.5,152.61218 308.86152,103.50666 316,95.862183 C 307.5,114.61218 323.98335,158.36218 331.5,158.36218 C 320.75,137.11218 328,99.362183 336.5,90.862183 C 330.57902,98.399311 329,107.86218 329,107.86218 C 329,118.86218 344.54835,152.83035 355.5,157.86218 C 346.5,144.36218 347,99.862183 353.5,88.362183 C 350.87138,92.797954 350.25,100.86218 350.25,100.86218 C 358.75,105.61218 363,145.86218 362.5,155.86218 C 373.27537,140.26193 366.48421,90.044138 366.5,86.362183 C 377.75,97.112183 379.625,131.42468 382,140.86218 C 387.14062,131.36176 389.86909,89.032101 385.5,83.862183 C 390.25,84.362183 403.75,131.36218 402.5,142.86218 C 409.78985,137.56047 399.5,88.362183 399.5,88.362183 C 416,105.86218 406.8125,196.67468 406.5,204.86218 C 414.6875,193.54968 423.25,111.61218 419,107.86218 C 423.02492,110.99268 416.5,156.86218 416.5,156.86218 C 418.5,157.86218 416.5,189.86218 416.5,189.86218 C 424,175.61218 428.25,107.11218 428,102.86218 C 428.07322,107.85698 425.25,141.125 425.25,141.125 z "
       id="path1342"
       sodipodi:nodetypes="ccccccccccccccccccccccccccccccccc" />
  </g>
  <g
     inkscape:groupmode="layer"
     id="layer11"
     inkscape:label="front hair dark"
     style="display:inline">
    <path
       style="fill:url(#linearGradient3183);fill-opacity:1;fill-rule:evenodd;stroke:none;stroke-width:1px;stroke-linecap:butt;stroke-linejoin:miter;stroke-opacity:1"
       d="M 270.8219,89.989853 C 252.26035,111.55661 248.54804,170.42325 278.24652,214.08709 C 236.88077,154.51334 251.55324,112.97082 270.8219,89.989853 z "
       id="path2302"
       sodipodi:nodetypes="ccc" />
    <path
       style="fill:url(#linearGradient4068);fill-opacity:1;fill-rule:evenodd;stroke:none;stroke-width:1px;stroke-linecap:butt;stroke-linejoin:miter;stroke-opacity:1"
       d="M 279.50852,100.75242 C 266.44697,124.81917 261.48466,170.93581 290.18314,212.84965 C 253.31739,166.5259 265.48986,125.23338 279.50852,100.75242 z "
       id="path4066"
       sodipodi:nodetypes="ccc" />
    <path
       style="fill:url(#linearGradient4072);fill-opacity:1;fill-rule:evenodd;stroke:none;stroke-width:1px;stroke-linecap:butt;stroke-linejoin:miter;stroke-opacity:1"
       d="M 283.82528,106.59125 C 265.51373,128.15801 285.05142,182.27465 314.7499,222.18849 C 278.38415,190.86474 264.30662,129.82222 283.82528,106.59125 z "
       id="path4070"
       sodipodi:nodetypes="ccc" />
    <path
       style="fill:url(#linearGradient4076);fill-opacity:1;fill-rule:evenodd;stroke:none;stroke-width:1px;stroke-linecap:butt;stroke-linejoin:miter;stroke-opacity:1"
       d="M 304.03975,68.604182 C 289.4782,94.670942 287.26589,120.78758 292.46437,163.95142 C 278.84862,108.12767 287.02109,91.835152 304.03975,68.604182 z "
       id="path4074"
       sodipodi:nodetypes="ccc" />
    <path
       style="fill:url(#linearGradient4080);fill-opacity:1;fill-rule:evenodd;stroke:none;stroke-width:1px;stroke-linecap:butt;stroke-linejoin:miter;stroke-opacity:1"
       d="M 320.21742,86.818654 C 307.15587,110.1354 308.69356,128.75204 314.89204,158.66588 C 303.52629,130.34213 303.44876,110.54961 320.21742,86.818654 z "
       id="path4078"
       sodipodi:nodetypes="ccc" />
    <path
       style="fill:url(#linearGradient4084);fill-opacity:1;fill-rule:evenodd;stroke:none;stroke-width:1px;stroke-linecap:butt;stroke-linejoin:miter;stroke-opacity:1"
       d="M 338.31666,87.083369 C 323.50511,110.90013 321.5428,128.51677 330.49128,157.93061 C 312.62553,124.35686 321.048,110.81434 338.31666,87.083369 z "
       id="path4082"
       sodipodi:nodetypes="ccc" />
    <path
       style="fill:url(#linearGradient4088);fill-opacity:1;fill-rule:evenodd;stroke:none;stroke-width:1px;stroke-linecap:butt;stroke-linejoin:miter;stroke-opacity:1"
       d="M 338.07276,88.962047 C 336.01121,113.77881 343.5489,136.39545 353.24738,155.80929 C 329.38163,126.48554 329.8041,106.19302 338.07276,88.962047 z "
       id="path4086"
       sodipodi:nodetypes="ccc" />
    <path
       style="fill:url(#linearGradient4092);fill-opacity:1;fill-rule:evenodd;stroke:none;stroke-width:1px;stroke-linecap:butt;stroke-linejoin:miter;stroke-opacity:1"
       d="M 354.57692,95.169154 C 359.63847,116.23591 361.60078,127.60255 362.9023,154.01639 C 368.76805,136.19264 364.84558,103.15012 354.57692,95.169154 z "
       id="path4090"
       sodipodi:nodetypes="ccc" />
    <path
       style="fill:url(#linearGradient4096);fill-opacity:1;fill-rule:evenodd;stroke:none;stroke-width:1px;stroke-linecap:butt;stroke-linejoin:miter;stroke-opacity:1"
       d="M 375.09037,86.987174 C 385.40192,101.30393 381.36423,126.42057 382.41575,138.58441 C 388.5315,105.01066 391.85903,96.218144 375.09037,86.987174 z "
       id="path4094"
       sodipodi:nodetypes="ccc" />
    <path
       style="fill:url(#linearGradient4100);fill-opacity:1;fill-rule:evenodd;stroke:none;stroke-width:1px;stroke-linecap:butt;stroke-linejoin:miter;stroke-opacity:1"
       d="M 388.12895,76.025754 C 397.6905,98.84251 395.90281,108.20915 403.70433,140.87299 C 405.57008,110.29924 400.89761,89.50672 388.12895,76.025754 z "
       id="path4098"
       sodipodi:nodetypes="ccc" />
    <path
       style="fill:url(#linearGradient4104);fill-opacity:1;fill-rule:evenodd;stroke:none;stroke-width:1px;stroke-linecap:butt;stroke-linejoin:miter;stroke-opacity:1"
       d="M 418.9353,109.03186 C 420.49685,134.09862 416.95916,166.96526 407.01068,203.1291 C 413.12643,170.30535 415.20396,134.26283 418.9353,109.03186 z "
       id="path4102"
       sodipodi:nodetypes="ccc" />
    <path
       style="fill:url(#linearGradient4108);fill-opacity:1;fill-rule:evenodd;stroke:none;stroke-width:1px;stroke-linecap:butt;stroke-linejoin:miter;stroke-opacity:1"
       d="M 416.12553,71.781858 C 434.68708,93.348618 432.13415,132.23948 427.18441,175.72655 C 445.92274,117.92056 435.39419,94.762828 416.12553,71.781858 z "
       id="path4106"
       sodipodi:nodetypes="ccc" />
    <path
       style="fill:url(#linearGradient4112);fill-opacity:1;fill-rule:evenodd;stroke:none;stroke-width:1px;stroke-linecap:butt;stroke-linejoin:miter;stroke-opacity:1"
       d="M 414.35777,70.89797 C 425.4947,94.58605 420.1914,132.23948 417.53975,186.33315 C 430.26768,117.21346 428.85346,93.525387 414.35777,70.89797 z "
       id="path4110"
       sodipodi:nodetypes="ccc" />
  </g>
</svg>
